CMS_ID,Active_Flag,Created,Modified,Valid_From,Valid_To,Barcode,BH3_ID,Product_Type,Retail_Article_ID,SAP_Product_ID,Vendor_Product_ID,Width,Length,Height,Radius,Weight,Volume,New_Arrival_Flag,Warranty_Flag,Warranty_Time,Image_Low_URL,Image_High_URL,Shop_Drawing_URL,Product_2D_URL,Product_3D_URL,Product_3D_Web_URL,Product_AR_Web_URL,CMS_Name_TH,CMS_Name_EN,Retail_Name_TH,Retail_Name_EN,POS_Name_TH,POS_Name_EN,Filter_Attrib1_TH,Filter_Attrib1_EN,Filter_Attrib2_TH,Filter_Attrib2_EN,Filter_Attrib3_TH,Filter_Attrib3_EN,Filter_Attrib4_TH,Filter_Attrib4_EN,Filter_Attrib5_TH,Filter_Attrib5_EN,Filter_Attrib6_TH,Filter_Attrib6_EN,Basic_Data_TH,Basic_Data_EN,Key_Feature_TH,Key_Feature_EN,Short_Description_TH,Short_Description_EN,Qualified_Standard_TH,Qualified_Standard_EN,CareWarning_Instruction_TH,CareWarning_Instruction_EN,Product_Tips_TH,Product_Tips_EN,Material_TH,Material_EN,Color_TH,Color_EN,Weight_Unit_TH,Weight_Unit_EN,Volume_Unit_TH,Volume_Unit_EN,Dim_UOM_TH,Dim_UOM_EN,Warranty_Time_UOM_TH,Warranty_Time_UOM_EN,Warranty_Description_TH,Warranty_Description_EN,Prod_Spec_Doc_URL_TH,Prod_Spec_Doc_URL_EN,Market
29603,1,2014-10-07T12:41:49,2014-10-07T12:41:49,,,8852425134677,46,Single,139073,C02C1224XX00000210,,410,700,830,,41.9,,0,0,,productmedia/c02c1224xx00000210/imagelow/prd-8852425134677-high1_icon.jpg,productmedia/c02c1224xx00000210/imagehigh/prd-8852425134677-high1.jpg,productmedia/c02c1224xx00000210/shopdrawing/sd-8852425134677-01.pdf,productmedia/c02c1224xx00000210/product2d/pd-8852425134677-dmi1.dwg,,,,C12247 สุขภัณฑ์สองชิ้น รุ่น ยูนีค ทู (ไฮยีน) (ท่อลงพื้น),C12247 Two Piece Toilet : Unique II Hyg. (S-Trap),C12247-ขาว-โถส้วม-ยูนีค-ทู-3/4.5L.-Hyg.,C12247 WH Unique II Closet Hyg.,,,คอตโต้,COTTO,ไม่ระบุ,Not Specify,ยูนีค ทู,Unique II,สุขภัณฑ์สองชิ้น ท่อน้ำทิ้งลงพื้น,Two Piece Toilet S-Trap,ดูอัล ฟลัช,Dual Flush,เซรามิค,Ceramic,มาตรฐาน   :  มอก. 792-2554<br>โถสุขภัณฑ์ :  สองชิ้น  <br>ขนาด        :  410 x 700 x 830 มม.<br>รูปทรงโถ   : ฝากึ่งหน้ายาว<br>ท่อน้ำทิ้ง   : ลงพื้น  ระยะ 305 มม.<br>ระบบชำระล้าง  : วอซ ดาวน์<br>ใช้น้ำ         :    3 ลิตร หรือ 4.5 ลิตร,Standard      :    TIS 792 - 2554<br>Water Closet  :   Two Piece Toilet<br>Size              :    410 x 700 x 830 mm.<br>Bowl Shape   :  Semi-Elongated<br>Outlet          : S-Trap &#044; rough-in 305 mm.<br>Flush System  : Wash Down<br>Water Comsumption   :  3 Liters or 4.5 Liters,,,- สุขภัณฑ์ Hygiene ลดคราบ ทำความสะอาดง่าย<br>- เลือกประหยัดน้ำได้ 2 แบบ ทั้งแบบ 3 ลิตร และ 4.5 ลิตร  (ประหยัดน้ำ 12.5% เมื่อเทียบกับ 3/6 ลิตร)<br>- ฝารองนั่งเปิดปิดนุ่มนวล ป้องกันการตกกระแทก<br>นั่งสบายด้วยตัวโถและฝารองนั่งแบบกึ่งหน้ายาว,- Hygiene. Less stain and easy to clean.<br>- Two choice for saving water is 3 liters or 4.5 liters (Save 12.5% more&#044; compared with 3/6 liters)<br>- Soft Close toilet seat&#044;which protect to be crash very well.<br>Semi-Elongated toilet seat for more convenience.,,,,,,,,,สีขาว,white,กก.,kg,,,มม.,mm,,,,,productmedia/c02c1224xx00000210/prodspecdoc/productspec-8852425134677-c12247 unique ii wc 2pc dual  s trap_th.pdf;productmedia/c02c1224xx00000210/prodspecdoc/productspec-8852425134677-c12247 unique ii wc 2pc dual  s trap_en.pdf,productmedia/c02c1224xx00000210/prodspecdoc/productspec-8852425134677-c12247 unique ii wc 2pc dual  s trap_th.pdf;productmedia/c02c1224xx00000210/prodspecdoc/productspec-8852425134677-c12247 unique ii wc 2pc dual  s trap_en.pdf,THA
52669,1,2015-03-09T11:55:24,2015-03-09T11:55:24,,,8852425134677,46,Single,139073,C02C1224XX00000210,,410,700,830,,41.9,,0,0,,productmedia/c02c1224xx00000210/imagelow/prd-8852425134677-high1_icon.jpg,productmedia/c02c1224xx00000210/imagehigh/prd-8852425134677-high1.jpg,productmedia/c02c1224xx00000210/shopdrawing/sd-8852425134677-01.pdf,productmedia/c02c1224xx00000210/product2d/pd-8852425134677-dmi1.dwg,,,,C12247 Two Piece Toilet : Unique II Hyg. (S-Trap),C12247 Two Piece Toilet : Unique II Hyg. (S-Trap),C12247 WH Unique II Closet Hyg.,C12247 WH Unique II Closet Hyg.,,,COTTO,COTTO,Not Specify,Not Specify,Unique II,Unique II,Two Piece Toilet S-Trap,Two Piece Toilet S-Trap,Dual Flush,Dual Flush,Ceramic,Ceramic,Standard      :    TIS 792 - 2554<br>Water Closet  :   Two Piece Toilet<br>Size              :    410 x 700 x 830 mm.<br>Bowl Shape   :  Semi-Elongated<br>Outlet          : S-Trap &#044; rough-in 305 mm.<br>Flush System  : Wash Down<br>Water Comsumption   :  3 Liters or 4.5 Liters,Standard      :    TIS 792 - 2554<br>Water Closet  :   Two Piece Toilet<br>Size              :    410 x 700 x 830 mm.<br>Bowl Shape   :  Semi-Elongated<br>Outlet          : S-Trap &#044; rough-in 305 mm.<br>Flush System  : Wash Down<br>Water Comsumption   :  3 Liters or 4.5 Liters,,,- Hygiene. Less stain and easy to clean.<br>- Two choice for saving water is 3 liters or 4.5 liters (Save 12.5% more&#044; compared with 3/6 liters)<br>- Soft Close toilet seat&#044;which protect to be crash very well.<br>Semi-Elongated toilet seat for more convenience.,- Hygiene. Less stain and easy to clean.<br>- Two choice for saving water is 3 liters or 4.5 liters (Save 12.5% more&#044; compared with 3/6 liters)<br>- Soft Close toilet seat&#044;which protect to be crash very well.<br>Semi-Elongated toilet seat for more convenience.,,,,,,,,,white,white,กก.,kg,,,มม.,mm,,,,,productmedia/c02c1224xx00000210/prodspecdoc/productspec-8852425134677-c12247 unique ii wc 2pc dual  s trap_th.pdf;productmedia/c02c1224xx00000210/prodspecdoc/productspec-8852425134677-c12247 unique ii wc 2pc dual  s trap_en.pdf,productmedia/c02c1224xx00000210/prodspecdoc/productspec-8852425134677-c12247 unique ii wc 2pc dual  s trap_th.pdf;productmedia/c02c1224xx00000210/prodspecdoc/productspec-8852425134677-c12247 unique ii wc 2pc dual  s trap_en.pdf,CTX
