<?xml version="1.0" standalone="no"?>
<!DOCTYPE svg PUBLIC "-//W3C//DTD SVG 1.1//EN" "http://www.w3.org/Graphics/SVG/1.1/DTD/svg11.dtd" >
<svg xmlns="http://www.w3.org/2000/svg" xmlns:xlink="http://www.w3.org/1999/xlink" version="1.1">
<metadata>
Created by FontForge 20150318 at Tue Mar 24 02:37:21 2015
 By uniteet7
</metadata>
<defs>
<font id="Montserrat-Regular" horiz-adv-x="274" >
  <font-face 
    font-family="Montserrat"
    font-weight="400"
    font-stretch="normal"
    units-per-em="1000"
    panose-1="2 0 5 5 0 0 0 2 0 4"
    ascent="800"
    descent="-200"
    x-height="530"
    cap-height="699"
    bbox="-110 -214 1036 903"
    underline-thickness="50"
    underline-position="-50"
    unicode-range="U+000D-2212"
  />
<missing-glyph 
 />
    <glyph glyph-name=".notdef" 
 />
    <glyph glyph-name=".null" horiz-adv-x="0" 
 />
    <glyph glyph-name="nonmarkingreturn" horiz-adv-x="333" 
 />
    <glyph glyph-name="NULL" horiz-adv-x="0" 
 />
    <glyph glyph-name="NULL" horiz-adv-x="0" 
 />
    <glyph glyph-name="CR" unicode="&#xd;" 
 />
    <glyph glyph-name="space" unicode=" " 
 />
    <glyph glyph-name="exclam" unicode="!" horiz-adv-x="295" 
d="M78 716h140v-129l-30 -361h-80l-30 361v129zM96 14q-22 22 -22 52.5t22 52.5t52.5 22t52.5 -22t22 -52.5t-22 -52.5t-52.5 -22t-52.5 22z" />
    <glyph glyph-name="quotedbl" unicode="&#x22;" horiz-adv-x="374" 
d="M77 453v246h78v-246h-78zM219 453v246h78v-246h-78z" />
    <glyph glyph-name="numbersign" unicode="#" horiz-adv-x="735" 
d="M671 436h-108l-29 -166h123l-22 -110h-119l-28 -160h-111l28 160h-147l-28 -160h-112l28 160h-103l22 110h100l29 166h-114l22 110h111l29 170h111l-29 -170h147l29 170h112l-31 -170h112zM453 436h-147l-30 -166h147z" />
    <glyph glyph-name="dollar" unicode="$" horiz-adv-x="619" 
d="M283 -72v73q-137 14 -246 109l73 87q84 -73 173 -87v194q-113 27 -165.5 71t-52.5 130.5t60.5 141.5t157.5 60v50h64v-51q110 -8 208 -75l-65 -92q-66 47 -143 58v-188h3q115 -27 169 -73t54 -133.5t-62 -142.5t-164 -60v-72h-64zM423 135q28 23 28 58t-22 55.5t-82 38.5
v-180q48 5 76 28zM212.5 573.5q-25.5 -22.5 -25.5 -56t20 -53t76 -37.5v173q-45 -4 -70.5 -26.5z" />
    <glyph glyph-name="percent" unicode="%" horiz-adv-x="786" 
d="M346 557q0 -66 -43.5 -113t-108 -47t-107.5 46.5t-43 112.5t43.5 113t108 47t107.5 -46.5t43 -112.5zM710 699l-512 -699h-129l512 699h129zM252 555q0 30 -17 50.5t-41.5 20.5t-40.5 -20.5t-16 -50.5t17 -50.5t41.5 -20.5t40.5 20.5t16 50.5zM743 152q0 -66 -43.5 -113
t-108 -47t-107.5 46.5t-43 112.5t43.5 113t108 47t107.5 -46.5t43 -112.5zM651 148q0 30 -17 50.5t-41.5 20.5t-40.5 -20.5t-16 -50.5t17 -50.5t41.5 -20.5t40.5 20.5t16 50.5z" />
    <glyph glyph-name="ampersand" unicode="&#x26;" horiz-adv-x="694" 
d="M285 -8q-98 0 -167 54.5t-69 149.5q0 113 164 201q-41 47 -57.5 77t-16.5 76q0 80 59 123t139 43t136 -41t56 -115q0 -99 -160 -187q80 -98 130 -150q31 46 48 107l82 -58q-26 -69 -59 -121q40 -41 102 -99l-75 -70l-92 91q-88 -81 -220 -81zM198 117.5
q38 -28.5 101 -28.5t134 58q-101 106 -160 178q-113 -61 -113 -134q0 -45 38 -73.5zM276.5 606q-26.5 -21 -26.5 -49t13.5 -50.5t46.5 -62.5q113 56 113 104q0 40 -26.5 59.5t-60 19.5t-60 -21z" />
    <glyph glyph-name="quotesingle" unicode="'" horiz-adv-x="232" 
d="M77 453v246h78v-246h-78z" />
    <glyph glyph-name="parenleft" unicode="(" horiz-adv-x="332" 
d="M161 312q0 -115 40 -239.5t98 -205.5h-119q-49 68 -89.5 194t-40.5 251t40.5 251t89.5 194h119q-58 -81 -98 -205.5t-40 -239.5z" />
    <glyph glyph-name="parenright" unicode=")" horiz-adv-x="332" 
d="M171 312q0 115 -40 239.5t-98 205.5h119q49 -68 89.5 -194t40.5 -251t-40.5 -251t-89.5 -194h-119q58 81 98 205.5t40 239.5z" />
    <glyph glyph-name="asterisk" unicode="*" horiz-adv-x="432" 
d="M337 430l-95 64l8 -114h-68l8 115l-95 -64l-34 58l102 51l-102 50l34 59l94 -63l-7 113h68l-7 -113l94 62l34 -58l-103 -50l103 -51z" />
    <glyph glyph-name="plus" unicode="+" horiz-adv-x="568" 
d="M239 150v190h-191v94h191v188h90v-188h191v-94h-191v-190h-90z" />
    <glyph glyph-name="comma" unicode="," horiz-adv-x="281" 
d="M66 65q0 32 22 53.5t52 21.5t52.5 -21.5t22.5 -51.5t-27 -73l-60 -99h-58l37 104q-41 19 -41 66z" />
    <glyph glyph-name="hyphen" unicode="-" horiz-adv-x="476" 
d="M72 246v105h332v-105h-332z" />
    <glyph glyph-name="period" unicode="." horiz-adv-x="280" 
d="M66 67q0 31 21.5 52.5t52.5 21.5t53 -21.5t22 -52.5t-22 -53t-53 -22t-52.5 22t-21.5 53z" />
    <glyph glyph-name="slash" unicode="/" horiz-adv-x="587" 
d="M461 811h100l-433 -928h-100z" />
    <glyph glyph-name="zero" unicode="0" horiz-adv-x="688" 
d="M173 354q0 -117 41.5 -189t129.5 -72t128.5 71.5t40.5 189.5t-40.5 189.5t-128.5 71.5t-129.5 -72t-41.5 -189zM59 354q0 165 71 263.5t214 98.5t214 -98.5t71 -263.5t-71 -263.5t-214 -98.5t-214 98.5t-71 263.5z" />
    <glyph glyph-name="one" unicode="1" horiz-adv-x="381" 
d="M29 699h254v-699h-112v594h-142v105z" />
    <glyph glyph-name="two" unicode="2" horiz-adv-x="589" 
d="M371 426q30 41 30 83t-32 71.5t-81 29.5q-86 0 -143 -88l-95 55q46 69 101.5 104t143 35t153.5 -55.5t66 -151.5q0 -54 -28 -103t-103 -126l-164 -167h317v-113h-478v100l212 213q71 72 101 113z" />
    <glyph glyph-name="three" unicode="3" horiz-adv-x="578" 
d="M77 594v105h409v-92l-169 -189q96 -3 150 -60.5t54 -137.5q0 -107 -72.5 -168t-186.5 -61t-223 73l50 95q86 -60 180 -60q61 0 100.5 28.5t39.5 82t-44 85.5t-122 32q-39 0 -75 -11v90l162 188h-253z" />
    <glyph glyph-name="four" unicode="4" horiz-adv-x="572" 
d="M337 283v128h112v-128h84v-107h-84v-176h-112v176h-300v104l257 419h129l-253 -416h167z" />
    <glyph glyph-name="five" unicode="5" horiz-adv-x="579" 
d="M486 700v-107h-295v-172q44 24 100 24q98 0 169 -59t71 -160t-74 -167.5t-182 -66.5q-141 0 -225 94l63 86q8 -8 21.5 -19t55.5 -29.5t92 -18.5t91 30t41 87.5t-43.5 89t-110 31.5t-126.5 -33l-50 54v336h402z" />
    <glyph glyph-name="six" unicode="6" horiz-adv-x="620" 
d="M354 606q-93 0 -137 -63t-45 -170q25 28 72 52.5t104 24.5q94 0 157.5 -62.5t63.5 -166t-68.5 -166.5t-172.5 -63q-168 0 -232 150q-36 86 -36 194t23 180t63 114q78 82 191.5 82t205.5 -71l-59 -87q-23 20 -61.5 36t-68.5 16zM231.5 312.5q-40.5 -33.5 -40.5 -87t39 -92
t98 -38.5t98 34.5t39 88t-36 91t-96.5 37.5t-101 -33.5z" />
    <glyph glyph-name="seven" unicode="7" horiz-adv-x="566" 
d="M46 498v201h492v-105l-296 -594h-130l289 592h-248v-94h-107z" />
    <glyph glyph-name="eight" unicode="8" horiz-adv-x="636" 
d="M318 713q101 0 168 -53t67 -133.5t-75 -142.5q101 -64 101 -180q0 -90 -72 -151t-189 -61t-189 61t-72 151q0 116 101 180q-75 62 -75 142.5t67 133.5t168 53zM318 94q52 0 98 29.5t46 84.5t-44 85t-100 30t-100 -30t-44 -85t46 -84.5t98 -29.5zM318 411q51 0 88.5 30.5
t37.5 75t-37.5 74.5t-88.5 30t-88.5 -30t-37.5 -74.5t37.5 -75t88.5 -30.5z" />
    <glyph glyph-name="nine" unicode="9" horiz-adv-x="619" 
d="M266 98q93 0 137 63t45 170q-25 -28 -72 -52.5t-104 -24.5q-94 0 -157.5 62.5t-63.5 166t68.5 166.5t172.5 63q168 0 232 -150q36 -86 36 -194t-23 -180t-63 -114q-78 -82 -191.5 -82t-205.5 71l59 87q23 -20 61.5 -36t68.5 -16zM388.5 391.5q40.5 33.5 40.5 87t-39 92
t-97.5 38.5t-96.5 -34.5t-38 -88.5t34.5 -91t95 -37t101 33.5z" />
    <glyph glyph-name="colon" unicode=":" horiz-adv-x="293" 
d="M72 67q0 31 21.5 52.5t52.5 21.5t53 -21.5t22 -52.5t-22 -53t-53 -22t-52.5 22t-21.5 53zM72 312q0 31 21.5 52.5t52.5 21.5t53 -21.5t22 -52.5t-22 -53t-53 -22t-52.5 22t-21.5 53z" />
    <glyph glyph-name="semicolon" unicode=";" horiz-adv-x="296" 
d="M73 66q0 32 22 53.5t52.5 21.5t53 -21.5t22.5 -50.5t-27 -75l-61 -99h-58l37 104q-41 21 -41 67zM73 312q0 31 21.5 52.5t52.5 21.5t53 -21.5t22 -52.5t-22 -53t-53 -22t-52.5 22t-21.5 53z" />
    <glyph glyph-name="less" unicode="&#x3c;" horiz-adv-x="592" 
d="M45 334v126l471 218v-114l-352 -159v-11l352 -163v-114z" />
    <glyph glyph-name="equal" unicode="=" horiz-adv-x="624" 
d="M60 528h504v-94h-504v94zM60 340h504v-94h-504v94z" />
    <glyph glyph-name="greater" unicode="&#x3e;" horiz-adv-x="592" 
d="M547 460v-126l-471 -217v114l352 163v11l-352 159v114z" />
    <glyph glyph-name="question" unicode="?" horiz-adv-x="508" 
d="M302 217h-113v61q0 40 9.5 59.5t41.5 51.5l73 73q23 25 23 62t-24 61.5t-62 24.5t-63.5 -23.5t-29.5 -62.5h-121q10 89 69.5 139.5t148.5 50.5t145 -48.5t56 -135.5q0 -60 -33 -100q-19 -24 -29 -34t-26.5 -25.5t-28 -27t-18.5 -19.5q-18 -22 -18 -62v-45zM193 16.5
q-23 21.5 -23 52t22.5 52.5t54 22t54.5 -21.5t23 -52t-22.5 -52.5t-54 -22t-54.5 21.5z" />
    <glyph glyph-name="at" unicode="@" horiz-adv-x="904" 
d="M446 -126q-168 0 -281.5 112t-113.5 280t119 287.5t287.5 119.5t284 -119.5t115.5 -291.5q0 -108 -41 -174.5t-109 -66.5q-49 0 -78 33.5t-31 95.5q-56 -129 -179 -129q-86 0 -151.5 69t-65.5 175t62 178t164 72q46 0 87 -24t59 -57v67h96v-349q0 -70 55 -70
q31 0 56.5 45.5t25.5 119.5q0 160 -96.5 271t-249 111t-259.5 -107t-107 -256t101 -248.5t250 -99.5q120 0 184 60l22 -37q-35 -30 -93 -48.5t-113 -18.5zM537 376q-38 42 -99 42t-98 -43t-37 -105.5t36.5 -109t99.5 -46.5t99.5 45.5t36.5 110t-38 106.5z" />
    <glyph glyph-name="A" unicode="A" horiz-adv-x="742" 
d="M196 159l-70 -159h-126l308 699h126l308 -699h-126l-70 159h-350zM498 268l-127 288l-127 -288h254z" />
    <glyph glyph-name="B" unicode="B" horiz-adv-x="706" 
d="M403 0h-306v699h272q71 0 122.5 -17t76.5 -46q48 -54 48 -122q0 -82 -52 -122q-19 -14 -26 -17.5t-25 -11.5q65 -14 103.5 -58.5t38.5 -110.5q0 -73 -50 -129q-59 -65 -202 -65zM215 409h150q128 0 128 87q0 50 -31 72t-96 22h-151v-181zM215 109h185q65 0 99.5 20.5
t34.5 77.5q0 93 -149 93h-170v-191z" />
    <glyph glyph-name="C" unicode="C" horiz-adv-x="736" 
d="M416 107q61 0 105 20.5t92 65.5l76 -78q-111 -123 -269.5 -123t-263 102t-104.5 258t106.5 260t269 104t271.5 -120l-75 -82q-50 48 -94.5 67t-104.5 19q-106 0 -178 -68.5t-72 -175t71.5 -178t169.5 -71.5z" />
    <glyph glyph-name="D" unicode="D" horiz-adv-x="782" 
d="M626 607.5q101 -91.5 101 -254.5t-98 -258t-300 -95h-232v699h240q188 0 289 -91.5zM608 350q0 240 -275 240h-118v-479h131q127 0 194.5 60.5t67.5 178.5z" />
    <glyph glyph-name="E" unicode="E" horiz-adv-x="654" 
d="M588 699v-111h-373v-185h335v-105h-335v-187h385v-111h-503v699h491z" />
    <glyph glyph-name="F" unicode="F" horiz-adv-x="604" 
d="M215 589v-192h310v-109h-310v-288h-118v699h466l-1 -110h-347z" />
    <glyph glyph-name="G" unicode="G" horiz-adv-x="757" 
d="M581 340h118v-239q-99 -109 -283 -109q-155 0 -259.5 102t-104.5 258t106.5 260t257.5 104t251 -88l-63 -90q-41 35 -82.5 48.5t-96.5 13.5q-106 0 -178 -68.5t-72 -180t70 -179t169.5 -67.5t166.5 43v192z" />
    <glyph glyph-name="H" unicode="H" horiz-adv-x="777" 
d="M97 0v699h118v-303h347v303h118v-699h-118v286h-347v-286h-118z" />
    <glyph glyph-name="I" unicode="I" horiz-adv-x="312" 
d="M97 699h118v-699h-118v699z" />
    <glyph glyph-name="J" unicode="J" horiz-adv-x="551" 
d="M120 593v106h340v-461q0 -122 -62 -183t-159 -61q-122 0 -208 86l67 93q68 -65 133 -65q46 0 78.5 31t32.5 93v361h-222z" />
    <glyph glyph-name="K" unicode="K" horiz-adv-x="704" 
d="M97 699h118v-341l320 341h150l-281 -306l285 -393h-140l-232 306l-102 -110v-196h-118v699z" />
    <glyph glyph-name="L" unicode="L" horiz-adv-x="566" 
d="M97 0v699h118v-587h319v-112h-437z" />
    <glyph glyph-name="M" unicode="M" horiz-adv-x="983" 
d="M215 0h-118v699h184l211 -439l211 439h183v-699h-118v546l-244 -485h-66l-243 485v-546z" />
    <glyph glyph-name="N" unicode="N" horiz-adv-x="836" 
d="M621 699h118v-699h-128l-396 510v-510h-118v699h118l406 -522v522z" />
    <glyph glyph-name="O" unicode="O" horiz-adv-x="840" 
d="M420 608q-104 0 -175.5 -74t-71.5 -179.5t71.5 -179.5t175.5 -74t175.5 74t71.5 179.5t-71.5 179.5t-175.5 74zM420 -7q-156 0 -262 103.5t-106 258t106 258t262 103.5t262 -103.5t106 -258t-106 -258t-262 -103.5z" />
    <glyph glyph-name="P" unicode="P" horiz-adv-x="684" 
d="M569 638q73 -61 73 -188t-74.5 -186t-228.5 -59h-124v-205h-118v699h240q159 0 232 -61zM485.5 349.5q35.5 37.5 35.5 110t-45 102.5t-141 30h-120v-280h137q98 0 133.5 37.5z" />
    <glyph glyph-name="Q" unicode="Q" horiz-adv-x="840" 
d="M435 -6l-15 -1q-156 0 -262 103.5t-106 258t106 258t262 103.5t262 -103.5t106 -257.5q0 -117 -63 -207.5t-168 -130.5q34 -45 86 -45q38 0 74.5 20t55.5 52l67 -93q-87 -92 -199 -92q-64 0 -123 36t-83 99zM420 608q-104 0 -175.5 -74t-71.5 -179.5t71.5 -179.5
t175.5 -74t175.5 74t71.5 179.5t-71.5 179.5t-175.5 74z" />
    <glyph glyph-name="R" unicode="R" horiz-adv-x="728" 
d="M655 472q0 -173 -151 -218l183 -254h-150l-167 235h-155v-235h-118v699h260q160 0 229 -54t69 -173zM498 373q36 31 36 99.5t-37 94t-132 25.5h-150v-250h147q100 0 136 31z" />
    <glyph glyph-name="S" unicode="S" horiz-adv-x="630" 
d="M224 586q-33 -21 -33 -63.5t33 -65t140.5 -48.5t162 -73t54.5 -138.5t-69 -148.5t-181 -57q-164 0 -291 113l74 89q106 -92 220 -92q57 0 90.5 24.5t33.5 65t-31.5 63t-108.5 41t-117 34t-71 40.5q-62 47 -62 144t70.5 149.5t174.5 52.5q67 0 133 -22t114 -62l-63 -89
q-31 28 -84 46t-104.5 18t-84.5 -21z" />
    <glyph glyph-name="T" unicode="T" horiz-adv-x="604" 
d="M361 591v-591h-118v591h-212v108h542v-108h-212z" />
    <glyph glyph-name="U" unicode="U" horiz-adv-x="768" 
d="M384 104q82 0 130 56t48 152v387h118v-392q0 -151 -83 -232.5t-213 -81.5t-213 81.5t-83 232.5v392h118v-387q0 -96 48 -152t130 -56z" />
    <glyph glyph-name="V" unicode="V" horiz-adv-x="700" 
d="M416 0h-132l-281 699h132l215 -522l215 522h132z" />
    <glyph glyph-name="W" unicode="W" horiz-adv-x="1048" 
d="M315 196l156 503h106l156 -503l176 503h127l-244 -699h-117l-147 479h-8l-147 -479h-117l-244 699h127z" />
    <glyph glyph-name="X" unicode="X" horiz-adv-x="673" 
d="M511 0l-172 263h-5l-172 -263h-147l240 359l-223 340h146l156 -236h5l156 236h146l-223 -340l240 -359h-147z" />
    <glyph glyph-name="Y" unicode="Y" horiz-adv-x="624" 
d="M372 0h-120v276l-260 423h129l191 -318l191 318h129l-260 -423v-276z" />
    <glyph glyph-name="Z" unicode="Z" horiz-adv-x="675" 
d="M454 591h-394v108h558v-92l-406 -495v-3h412v-109h-577v91l407 497v3z" />
    <glyph glyph-name="bracketleft" unicode="[" horiz-adv-x="355" 
d="M314 757v-84h-138v-729h138v-84h-226v897h226z" />
    <glyph glyph-name="backslash" unicode="\" horiz-adv-x="522" 
d="M28 757h100l364 -757h-100z" />
    <glyph glyph-name="bracketright" unicode="]" horiz-adv-x="355" 
d="M41 673v84h226v-897h-226v84h138v729h-138z" />
    <glyph glyph-name="asciicircum" unicode="^" horiz-adv-x="394" 
d="M273 742l-77 83l-77 -83h-97l122 156h102l121 -156h-94z" />
    <glyph glyph-name="underscore" unicode="_" horiz-adv-x="722" 
d="M72 -138v57h578v-57h-578z" />
    <glyph glyph-name="grave" unicode="`" horiz-adv-x="833" 
d="M540 600h-102l-122 96l118 49z" />
    <glyph glyph-name="a" unicode="a" horiz-adv-x="587" 
d="M512 0h-102v71q-66 -79 -177 -79q-83 0 -137.5 47t-54.5 125.5t58 117.5t157 39h145v20q0 106 -118 106q-74 0 -154 -54l-50 70q97 77 220 77q94 0 153.5 -47.5t59.5 -149.5v-343zM400 198v45h-126q-121 0 -121 -76q0 -39 30 -59.5t83.5 -20.5t93.5 30t40 81z" />
    <glyph glyph-name="b" unicode="b" horiz-adv-x="672" 
d="M549 466q76 -74 76 -197t-75.5 -200t-176 -77t-180.5 88v-80h-112v742h112v-303q66 101 173 101t183 -74zM237 140.5q46 -48.5 112 -48.5t115 48t49 124.5t-48 127t-115 50.5t-113 -50.5t-46 -126.5t46 -124.5z" />
    <glyph glyph-name="c" unicode="c" horiz-adv-x="576" 
d="M317 -8q-111 0 -191 75.5t-80 197.5t83.5 198.5t203.5 76.5t203 -83l-66 -81q-69 60 -139 60t-121.5 -46.5t-51.5 -120t51 -124.5t125.5 -51t140.5 68l66 -72q-97 -98 -224 -98z" />
    <glyph glyph-name="d" unicode="d" horiz-adv-x="672" 
d="M122 68q-75 76 -75 200t77 198t183.5 74t171.5 -90v292h112v-742h-112v80q-62 -88 -181 -88q-101 0 -176 76zM208 139q49 -48 115 -48t112 48.5t46 124.5t-46 127t-113 51t-115 -51t-48 -127.5t49 -124.5z" />
    <glyph glyph-name="e" unicode="e" horiz-adv-x="618" 
d="M576 217h-417q4 -58 53 -93.5t112 -35.5q100 0 152 63l64 -70q-86 -89 -224 -89q-112 0 -190.5 74.5t-78.5 200t80 199.5t188.5 74t184.5 -65.5t76 -180.5v-77zM159 305h305q0 67 -42 103t-103.5 36t-110.5 -37.5t-49 -101.5z" />
    <glyph glyph-name="f" unicode="f" horiz-adv-x="386" 
d="M219 576v-44h140v-90h-140v-442h-112v442h-67v90h67v41q0 84 50.5 133.5t122 49.5t130.5 -53l-46 -79q-33 35 -69 35t-56 -22.5t-20 -60.5z" />
    <glyph glyph-name="g" unicode="g" horiz-adv-x="654" 
d="M573 532v-464q0 -141 -76.5 -211.5t-196.5 -70.5t-217 75l53 85q78 -59 157.5 -59t126 41t46.5 131v68q-25 -47 -71.5 -75t-104.5 -28q-106 0 -174 74t-68 184t68 184t173.5 74t171.5 -87v79h112zM198.5 173.5q40.5 -47.5 109 -47.5t111 46t42.5 114.5t-43 116t-111 47.5
t-108.5 -49t-40.5 -114.5t40.5 -113z" />
    <glyph glyph-name="h" unicode="h" horiz-adv-x="646" 
d="M193 288v-288h-112v741h112v-306q24 49 72.5 77t104.5 28q90 0 145.5 -55t55.5 -159v-326h-112v292q0 147 -122 147q-58 0 -101 -38.5t-43 -112.5z" />
    <glyph glyph-name="i" unicode="i" 
d="M193 0h-112v532h112v-532zM67 688q0 29 21 50t50 21t50 -21t21 -50t-21 -50t-50 -21t-50 21t-21 50z" />
    <glyph glyph-name="j" unicode="j" 
d="M81 -25v557h112v-561q0 -84 -50.5 -133.5t-122 -49.5t-130.5 53l52 84q34 -33 68.5 -33t52.5 22t18 61zM65 688q0 29 21 50t50 21t50 -21t21 -50t-21 -50t-50 -21t-50 21t-21 50z" />
    <glyph glyph-name="k" unicode="k" horiz-adv-x="581" 
d="M193 0h-112v742h112v-436l216 226h144l-202 -211l217 -321h-136l-158 233l-81 -82v-151z" />
    <glyph glyph-name="l" unicode="l" 
d="M193 0h-112v742h112v-742z" />
    <glyph glyph-name="m" unicode="m" horiz-adv-x="1014" 
d="M193 288v-288h-112v532h112v-97q24 49 72.5 77t104.5 28q126 0 171 -104q79 104 197 104q90 0 145.5 -55t55.5 -159v-326h-112v292q0 147 -122 147q-57 0 -99.5 -36.5t-44.5 -106.5v-296h-112v292q0 76 -27 111.5t-85 35.5t-101 -38.5t-43 -112.5z" />
    <glyph glyph-name="n" unicode="n" horiz-adv-x="646" 
d="M193 288v-288h-112v532h112v-97q27 49 74.5 77t102.5 28q90 0 145.5 -55t55.5 -159v-326h-112v292q0 147 -122 147q-58 0 -101 -38.5t-43 -112.5z" />
    <glyph glyph-name="o" unicode="o" horiz-adv-x="652" 
d="M326 92q73 0 120.5 48.5t47.5 125.5t-47.5 125.5t-120.5 48.5t-120.5 -48.5t-47.5 -125.5t47.5 -125.5t120.5 -48.5zM326 -8q-120 0 -200 79.5t-80 194.5t80 194.5t200 79.5t200 -79.5t80 -194.5t-80 -194.5t-200 -79.5z" />
    <glyph glyph-name="p" unicode="p" horiz-adv-x="672" 
d="M549 466q76 -74 76 -197t-75.5 -200t-176 -77t-180.5 88v-274h-112v726h112v-93q66 101 173 101t183 -74zM237 140.5q46 -48.5 112 -48.5t115 48t49 124.5t-48 127t-115 50.5t-113 -50.5t-46 -126.5t46 -124.5z" />
    <glyph glyph-name="q" unicode="q" horiz-adv-x="672" 
d="M122.5 69q-75.5 77 -75.5 200t76 197t183 74t173 -101v93h112v-726h-112v274q-80 -88 -180.5 -88t-176 77zM208 140q49 -48 115 -48t112 48.5t46 124.5t-46 126.5t-113 50.5t-115 -50.5t-48 -127t49 -124.5z" />
    <glyph glyph-name="r" unicode="r" horiz-adv-x="397" 
d="M360 427q-83 0 -125 -54t-42 -145v-228h-112v532h112v-107q27 50 73.5 82t98.5 33l1 -113h-6z" />
    <glyph glyph-name="s" unicode="s" horiz-adv-x="506" 
d="M405 37.5q-55 -45.5 -141 -45.5q-58 0 -120.5 21t-110.5 59l54 87q93 -70 180 -70q38 0 60 17.5t22 44.5q0 40 -106 72q-8 3 -12 4q-166 45 -166 150q0 74 57.5 118.5t149.5 44.5t174 -54l-42 -83q-65 43 -141 43q-40 0 -65 -14.5t-25 -43.5q0 -26 26 -38q18 -9 50.5 -17
t57.5 -16t48.5 -18t50.5 -28q54 -36 54 -112t-55 -121.5z" />
    <glyph glyph-name="t" unicode="t" horiz-adv-x="418" 
d="M219 442v-270q0 -38 20 -60.5t56 -22.5t69 35l46 -79q-59 -53 -130.5 -53t-122 49.5t-50.5 133.5v267h-67v90h67v167h112v-167h140v-90h-140z" />
    <glyph glyph-name="u" unicode="u" horiz-adv-x="646" 
d="M453 244v288h112v-532h-112v97q-27 -49 -74.5 -77t-102.5 -28q-90 0 -145.5 55t-55.5 159v326h112v-292q0 -147 122 -147q58 0 101 38.5t43 112.5z" />
    <glyph glyph-name="v" unicode="v" horiz-adv-x="572" 
d="M222 0l-214 532h116l162 -402l162 402h116l-214 -532h-128z" />
    <glyph glyph-name="w" unicode="w" horiz-adv-x="912" 
d="M330 0h-128l-184 532h116l132 -402l132 402h116l132 -402l132 402h116l-184 -532h-128l-126 364z" />
    <glyph glyph-name="x" unicode="x" horiz-adv-x="558" 
d="M166 532l114 -175l118 175h133l-186 -260l194 -272h-138l-127 177l-124 -177h-131l189 271l-179 261h137z" />
    <glyph glyph-name="y" unicode="y" horiz-adv-x="574" 
d="M148 -212q-73 0 -132 53l51 91q35 -33 72.5 -33t61 27t23.5 59q0 14 -215 547h120l159 -392l159 392h120l-258 -632q-23 -52 -66 -82t-95 -30z" />
    <glyph glyph-name="z" unicode="z" horiz-adv-x="541" 
d="M64 434v96h416v-101l-299 -332h315v-97h-452v109l291 325h-271z" />
    <glyph glyph-name="braceleft" unicode="{" horiz-adv-x="336" 
d="M276 665q-62 0 -62 -57v-217q0 -70 -66 -82q66 -11 66 -81v-235q0 -26 14.5 -36t55.5 -10v-93h-34q-136 0 -136 132v216q0 33 -12 46.5t-38 13.5h-24v93h24q26 0 38 14t12 48v208q0 132 136 132h34v-93q-3 1 -8 1z" />
    <glyph glyph-name="bar" unicode="|" horiz-adv-x="257" 
d="M87 -153v935h83v-935h-83z" />
    <glyph glyph-name="braceright" unicode="}" horiz-adv-x="336" 
d="M86 -146h-34v93q41 0 55.5 10t14.5 36v235q0 70 66 81q-66 12 -66 82v217q0 31 -16.5 44.5t-32.5 13.5h-3l-18 -2v93h34q136 0 136 -132v-208q0 -34 12 -48t38 -14h24v-93h-24q-26 0 -38 -13.5t-12 -46.5v-216q0 -132 -136 -132z" />
    <glyph glyph-name="asciitilde" unicode="~" horiz-adv-x="565" 
d="M184 370q-40 0 -47 -65l-87 25q6 70 42 105.5t93 35.5q45 0 121 -41q50 -26 74 -26q40 0 47 65l88 -25q-6 -70 -42.5 -106t-93.5 -36q-43 0 -121 42q-50 26 -74 26z" />
    <glyph glyph-name="exclamdown" unicode="&#xa1;" horiz-adv-x="294" 
d="M216 -8h-139v126l30 361h80l29 -361v-126zM95 586q-22 22 -22 52.5t22 52.5t52.5 22t52.5 -22t22 -52.5t-22 -52.5t-52.5 -22t-52.5 22z" />
    <glyph glyph-name="cent" unicode="&#xa2;" horiz-adv-x="586" 
d="M289 -122v116q-101 11 -170.5 84.5t-69.5 185.5t69 185.5t171 87.5v119h64v-117q113 -9 186 -82l-66 -81q-61 52 -120 58v-339q66 7 125 67l66 -72q-83 -85 -191 -96v-116h-64zM197.5 373.5q-36.5 -43.5 -36.5 -105t35.5 -107.5t92.5 -61v330q-55 -13 -91.5 -56.5z" />
    <glyph glyph-name="sterling" unicode="&#xa3;" horiz-adv-x="616" 
d="M263 516v-131h167v-98h-167v-182h298v-105h-498v105h82v182h-86v98h86v125q0 121 61 176.5t160 55.5q131 0 197 -112l-83 -66q-41 68 -106 68q-48 0 -79.5 -27.5t-31.5 -88.5z" />
    <glyph glyph-name="currency" unicode="&#xa4;" horiz-adv-x="755" 
d="M150 152q-53 72 -53 164t51 162l-88 88l71 70l90 -89q68 44 155 44t158 -45l90 90l71 -70l-89 -89q51 -72 51 -161.5t-54 -162.5l92 -91l-70 -70l-95 93q-67 -42 -153 -42t-153 42l-94 -93l-70 70zM377 149q70 0 116 47t46 121t-46 120.5t-116 46.5t-116 -46.5
t-46 -120.5t46 -121t116 -47z" />
    <glyph glyph-name="yen" unicode="&#xa5;" horiz-adv-x="715" 
d="M102 212h190v54l-4 6h-186v88h134l-201 339h129l189 -321h7l196 321h127l-208 -339h131v-88h-185l-3 -6v-54h188v-88h-189v-124h-125v124h-190v88z" />
    <glyph glyph-name="brokenbar" unicode="&#xa6;" horiz-adv-x="276" 
d="M91 430v327h94v-327h-94zM91 -24v327h94v-327h-94z" />
    <glyph glyph-name="section" unicode="&#xa7;" horiz-adv-x="610" 
d="M145 317q0 -47 58.5 -78t149.5 -31q52 0 86.5 22t34.5 54.5t-23 53.5t-59 32q-72 21 -127.5 21t-87.5 -19.5t-32 -54.5zM228.5 627q-26.5 -21 -26.5 -54.5t29 -53.5t131.5 -44.5t153.5 -63.5t51 -112q0 -50 -32 -90.5t-100 -56.5q46 -17 69 -52t23 -72
q0 -69 -58.5 -117.5t-156.5 -48.5q-143 0 -253 98l64 76q98 -81 192 -81q107 0 107 68q0 32 -33.5 53t-131 49.5t-152 69t-54.5 118.5q0 48 33 88t92 51q-81 32 -81 112t58.5 129t149.5 49q65 0 114 -16t100 -53l-57 -80q-74 55 -159 55q-46 0 -72.5 -21z" />
    <glyph glyph-name="dieresis" unicode="&#xa8;" horiz-adv-x="610" 
d="M183.5 619q-17.5 18 -17.5 43.5t18 43.5t43.5 18t43.5 -17.5t18 -43t-18.5 -44t-44 -18.5t-43 18zM369 619q-18 18 -18 43.5t18 43.5t43.5 18t43.5 -17.5t18 -43t-18 -44t-43.5 -18.5t-43.5 18z" />
    <glyph glyph-name="copyright" unicode="&#xa9;" horiz-adv-x="832" 
d="M778 351q0 -149 -106 -256t-257 -107t-256 106t-105 255t106 256t256 107t256 -106t106 -255zM734 350q0 131 -91.5 224t-224.5 93t-225 -93.5t-92 -225t91 -224.5t224 -93t225.5 94t92.5 225zM583 224q-68 -71 -155 -71t-145 54.5t-58 143.5t60 144t149 55t146 -60
l-48 -59q-52 44 -102 44t-87.5 -33.5t-37.5 -87t37.5 -90.5t92 -37t100.5 49z" />
    <glyph glyph-name="ordfeminine" unicode="&#xaa;" horiz-adv-x="352" 
d="M277 466h-47v33q-31 -37 -75.5 -37t-70 22t-25.5 58q0 73 99 73h68v9q0 49 -55 49q-33 0 -71 -25l-23 33q44 35 95 35q105 0 105 -91v-159zM225 558v21h-58q-56 0 -56 -36q0 -18 14 -27.5t38.5 -9.5t43 14.5t18.5 37.5z" />
    <glyph glyph-name="guillemotleft" unicode="&#xab;" horiz-adv-x="547" 
d="M283 416l-115 -176l115 -176h-108l-119 176l119 176h108zM481 416l-115 -176l115 -176h-108l-119 176l119 176h108z" />
    <glyph glyph-name="logicalnot" unicode="&#xac;" horiz-adv-x="828" 
d="M67 445h669v-357h-82v269h-587v88z" />
    <glyph glyph-name="registered" unicode="&#xae;" horiz-adv-x="832" 
d="M778 351q0 -149 -106 -256t-257 -107t-256 106t-105 255t106 256t256 107t256 -106t106 -255zM734 350q0 131 -91.5 224t-224.5 93t-225 -93.5t-92 -225t91 -224.5t224 -93t225.5 94t92.5 225zM591 420q0 -97 -85 -122l104 -141h-84l-94 131h-86v-131h-68v391h147
q89 0 127.5 -30.5t38.5 -97.5zM503.5 365q20.5 17 20.5 55.5t-21 53.5t-74 15h-83v-141h81q56 0 76.5 17z" />
    <glyph glyph-name="macron" unicode="&#xaf;" horiz-adv-x="424" 
d="M366 687v-87h-307v87h307z" />
    <glyph glyph-name="degree" unicode="&#xb0;" horiz-adv-x="416" 
d="M208 715q64 0 109 -45t45 -109t-45 -108.5t-109 -44.5t-109 44.5t-45 108.5t45 109t109 45zM135.5 489q29.5 -30 72 -30t72 30t29.5 72t-29.5 71.5t-72 29.5t-72 -29.5t-29.5 -71.5t29.5 -72z" />
    <glyph glyph-name="plusminus" unicode="&#xb1;" horiz-adv-x="568" 
d="M239 276v135h-191v94h191v133h90v-133h191v-94h-191v-135h-90zM48 220h472v-84h-472v84z" />
    <glyph glyph-name="twosuperior" unicode="&#xb2;" horiz-adv-x="419" 
d="M253.5 547q17.5 24 17.5 48.5t-18.5 41.5t-47.5 17q-51 0 -84 -51l-55 32q53 81 140 81q54 0 92.5 -32.5t38.5 -88.5q0 -31 -16.5 -59.5t-60.5 -74.5l-95 -97h185v-66h-279v58l123 125q42 42 59.5 66z" />
    <glyph glyph-name="threesuperior" unicode="&#xb3;" horiz-adv-x="396" 
d="M77 637v62h242v-55l-100 -112q57 -1 88.5 -35.5t31.5 -89.5t-42.5 -91t-110.5 -36t-132 43l30 56q49 -35 106 -35q36 0 59.5 16.5t23.5 48.5t-26 51t-60.5 19t-56.5 -7v53l96 112h-149z" />
    <glyph glyph-name="acute" unicode="&#xb4;" horiz-adv-x="833" 
d="M440 628h-102l106 145l118 -49z" />
    <glyph glyph-name="mu" unicode="&#xb5;" horiz-adv-x="642" 
d="M86 -194v726h112v-292q0 -147 122 -147q58 0 101 38.5t43 112.5v288h112v-532h-112v97q-27 -49 -74.5 -77t-99.5 -28t-92 17v-203h-112z" />
    <glyph glyph-name="paragraph" unicode="&#xb6;" horiz-adv-x="671" 
d="M35 556q0 85 59 143t179 58h299v-869h-93v774h-112v-774h-90v479q-24 -3 -46 -3q-55 0 -96 19t-61 49q-39 58 -39 124z" />
    <glyph glyph-name="periodcentered" unicode="&#xb7;" horiz-adv-x="291" 
d="M71 319q0 31 21.5 52.5t52.5 21.5t53 -21.5t22 -52.5t-22 -53t-53 -22t-52.5 22t-21.5 53z" />
    <glyph glyph-name="cedilla" unicode="&#xb8;" horiz-adv-x="281" 
d="M235 -117q0 -38 -31 -66.5t-78.5 -28.5t-83.5 22l26 57q19 -10 38.5 -10t30.5 11.5t11 27.5t-11.5 28.5t-29 12.5t-29.5 -5l36 68h71l-20 -38q70 -9 70 -79z" />
    <glyph glyph-name="onesuperior" unicode="&#xb9;" horiz-adv-x="268" 
d="M41 699h148v-409h-65v348h-83v61z" />
    <glyph glyph-name="ordmasculine" unicode="&#xba;" horiz-adv-x="378" 
d="M189 504q35 0 57.5 23t22.5 59.5t-22.5 59.5t-57.5 23t-57.5 -23t-22.5 -59.5t22.5 -59.5t57.5 -23zM189 456q-57 0 -95 37.5t-38 92.5t38 92.5t95 37.5t95 -37.5t38 -92.5t-38 -92.5t-95 -37.5z" />
    <glyph glyph-name="guillemotright" unicode="&#xbb;" horiz-adv-x="547" 
d="M379 240l-115 176h108l119 -176l-119 -176h-108zM181 240l-115 176h108l119 -176l-119 -176h-108z" />
    <glyph glyph-name="onequarter" unicode="&#xbc;" horiz-adv-x="863" 
d="M591 757h72l-373 -765h-72zM709 166v75h65v-75h50v-63h-50v-103h-65v103h-175v61l149 245h76l-148 -243h98zM35 699h148v-409h-65v348h-83v61z" />
    <glyph glyph-name="onehalf" unicode="&#xbd;" horiz-adv-x="928" 
d="M623 757h72l-373 -765h-72zM787.5 249q17.5 24 17.5 48.5t-18.5 41.5t-47.5 17q-49 0 -84 -51l-54 32q53 81 139 81q54 0 93 -32.5t39 -88.5q0 -31 -16.5 -60t-60.5 -74l-96 -97h185v-66h-279v58l124 125q41 42 58.5 66zM35 699h148v-409h-65v348h-83v61z" />
    <glyph glyph-name="threequarters" unicode="&#xbe;" horiz-adv-x="901" 
d="M632 757h72l-373 -765h-72zM750 166v75h65v-75h50v-63h-50v-103h-65v103h-175v61l149 245h76l-148 -243h98zM63 637v62h242v-55l-100 -112q57 -1 88.5 -35.5t31.5 -89.5t-42.5 -91t-110.5 -36t-132 43l30 56q49 -35 106 -35q36 0 59.5 16.5t23.5 48.5t-26 51t-60.5 19
t-56.5 -7v53l96 112h-149z" />
    <glyph glyph-name="questiondown" unicode="&#xbf;" horiz-adv-x="508" 
d="M206 490h113v-61q0 -40 -9.5 -59.5t-41.5 -51.5l-73 -73q-23 -25 -23 -62t24 -61.5t62 -24.5t63.5 23.5t29.5 62.5h121q-10 -89 -69.5 -139.5t-148.5 -50.5t-145 48.5t-56 135.5q0 60 33 100q19 24 29 34t26.5 25.5t28 27t18.5 20.5q18 21 18 61v45zM315 690.5
q23 -21.5 23 -52t-22.5 -52.5t-54 -22t-54.5 21.5t-23 52t22.5 52.5t54 22t54.5 -21.5z" />
    <glyph glyph-name="Agrave" unicode="&#xc0;" horiz-adv-x="730" 
d="M422 699l308 -699h-130l-71 159h-335l-68 -159h-126l308 699h114zM482 268l-120 269l-119 -269h239zM420 757h-102l-122 96l118 49z" />
    <glyph glyph-name="Aacute" unicode="&#xc1;" horiz-adv-x="742" 
d="M196 159l-70 -159h-126l308 699h126l308 -699h-126l-70 159h-350zM498 268l-127 288l-127 -288h254zM425 758h-102l106 145l118 -49z" />
    <glyph glyph-name="Acircumflex" unicode="&#xc2;" horiz-adv-x="730" 
d="M422 699l308 -699h-130l-71 159h-335l-68 -159h-126l308 699h114zM482 268l-120 269l-119 -269h239zM309 891h104l122 -134h-97l-77 56l-77 -56h-97z" />
    <glyph glyph-name="Atilde" unicode="&#xc3;" horiz-adv-x="730" 
d="M422 699l308 -699h-130l-71 159h-335l-68 -159h-126l308 699h114zM482 268l-120 269l-119 -269h239zM438 754q-26 0 -72.5 23.5t-59.5 23.5q-33 0 -34 -44h-74q0 58 23.5 94t65.5 36q27 0 75 -23.5t63 -23.5q30 0 30 44h75q-3 -130 -92 -130z" />
    <glyph glyph-name="Adieresis" unicode="&#xc4;" horiz-adv-x="730" 
d="M422 699l308 -699h-130l-71 159h-335l-68 -159h-126l308 699h114zM482 268l-120 269l-119 -269h239zM228.5 771q-17.5 18 -17.5 43.5t17.5 43.5t43.5 18t44 -17.5t18 -43t-18 -44t-44 -18.5t-43.5 18zM414 771q-18 18 -18 43.5t18 43.5t43.5 18t43.5 -17.5t18 -43
t-18.5 -44t-43.5 -18.5t-43 18z" />
    <glyph glyph-name="Aring" unicode="&#xc5;" horiz-adv-x="730" 
d="M441 844.5q33 -31.5 33 -79t-47 -79.5l303 -686h-130l-71 159h-335l-68 -159h-126l302 687q-45 32 -45 79t32.5 78.5t75.5 31.5t76 -31.5zM482 268l-120 269l-119 -269h239zM405 731.5q15 15.5 15 40t-15 40t-39.5 15.5t-40 -15.5t-15.5 -40t15.5 -40t40 -15.5t39.5 15.5
z" />
    <glyph glyph-name="AE" unicode="&#xc6;" horiz-adv-x="1040" 
d="M974 699v-110h-373v-192h335v-103h-335v-184h385v-110h-514v159h-253l-85 -159h-145l366 699h619zM472 272v317h-29l-167 -317h196z" />
    <glyph glyph-name="Ccedilla" unicode="&#xc7;" horiz-adv-x="736" 
d="M416 107q61 0 105 20.5t92 65.5l76 -78q-104 -116 -254 -122l-16 -31q70 -9 70 -79q0 -38 -31 -66.5t-78.5 -28.5t-83.5 22l26 57q19 -10 38.5 -10t30.5 11.5t11 27.5t-11.5 28.5t-29 12.5t-29.5 -5l33 63q-137 17 -225 116t-88 248t106.5 253t269 104t271.5 -120
l-75 -82q-50 48 -94.5 67t-104.5 19q-106 0 -178 -68.5t-72 -175t71.5 -178t169.5 -71.5z" />
    <glyph glyph-name="Egrave" unicode="&#xc8;" horiz-adv-x="654" 
d="M421 757h-102l-122 96l118 49zM588 699v-111h-373v-185h335v-105h-335v-187h385v-111h-503v699h491z" />
    <glyph glyph-name="Eacute" unicode="&#xc9;" horiz-adv-x="654" 
d="M588 699v-111h-373v-185h335v-105h-335v-187h385v-111h-503v699h491zM396 757h-102l106 145l118 -49z" />
    <glyph glyph-name="Ecircumflex" unicode="&#xca;" horiz-adv-x="654" 
d="M291 891h104l122 -134h-97l-77 56l-77 -56h-97zM588 699v-111h-373v-185h335v-105h-335v-187h385v-111h-503v699h491z" />
    <glyph glyph-name="Edieresis" unicode="&#xcb;" horiz-adv-x="654" 
d="M207.5 771q-17.5 18 -17.5 43.5t18 43.5t43.5 18t43.5 -17.5t18 -43t-18.5 -44t-44 -18.5t-43 18zM393 771q-18 18 -18 43.5t18 43.5t43.5 18t43.5 -17.5t18 -43t-18 -44t-43.5 -18.5t-43.5 18zM588 699v-111h-373v-185h335v-105h-335v-187h385v-111h-503v699h491z" />
    <glyph glyph-name="Igrave" unicode="&#xcc;" horiz-adv-x="312" 
d="M209 757h-102l-122 96l118 49zM97 699h118v-699h-118v699z" />
    <glyph glyph-name="Iacute" unicode="&#xcd;" horiz-adv-x="312" 
d="M97 699h118v-699h-118v699zM205 757h-102l106 145l118 -49z" />
    <glyph glyph-name="Icircumflex" unicode="&#xce;" horiz-adv-x="312" 
d="M97 699h118v-699h-118v699zM115 891h104l122 -134h-97l-77 56l-77 -56h-97z" />
    <glyph glyph-name="Idieresis" unicode="&#xcf;" horiz-adv-x="312" 
d="M20.5 771q-17.5 18 -17.5 43.5t17.5 43.5t43.5 18t44 -17.5t18 -43t-18 -44t-44 -18.5t-43.5 18zM206 771q-18 18 -18 43.5t18 43.5t43.5 18t43.5 -17.5t18 -43t-18.5 -44t-43.5 -18.5t-43 18zM97 699h118v-699h-118v699z" />
    <glyph glyph-name="Eth" unicode="&#xd0;" horiz-adv-x="790" 
d="M26 294v105h79v300h240q188 0 289 -91.5t101 -254.5t-98 -258t-300 -95h-232v294h-79zM616 350q0 240 -275 240h-118v-191h250v-105h-250v-183h131q127 0 194.5 60.5t67.5 178.5z" />
    <glyph glyph-name="Ntilde" unicode="&#xd1;" horiz-adv-x="836" 
d="M621 699h118v-699h-128l-396 510v-510h-118v699h118l406 -522v522zM489 754q-26 0 -72.5 23.5t-59.5 23.5q-33 0 -34 -44h-74q0 58 23.5 94t65.5 36q27 0 75 -23.5t63 -23.5q30 0 30 44h75q-3 -130 -92 -130z" />
    <glyph glyph-name="Ograve" unicode="&#xd2;" horiz-adv-x="840" 
d="M496 757h-102l-122 96l118 49zM420 608q-104 0 -175.5 -74t-71.5 -179.5t71.5 -179.5t175.5 -74t175.5 74t71.5 179.5t-71.5 179.5t-175.5 74zM420 -7q-156 0 -262 103.5t-106 258t106 258t262 103.5t262 -103.5t106 -258t-106 -258t-262 -103.5z" />
    <glyph glyph-name="Oacute" unicode="&#xd3;" horiz-adv-x="840" 
d="M420 608q-104 0 -175.5 -74t-71.5 -179.5t71.5 -179.5t175.5 -74t175.5 74t71.5 179.5t-71.5 179.5t-175.5 74zM420 -7q-156 0 -262 103.5t-106 258t106 258t262 103.5t262 -103.5t106 -258t-106 -258t-262 -103.5zM438 757h-102l106 145l118 -49z" />
    <glyph glyph-name="Ocircumflex" unicode="&#xd4;" horiz-adv-x="840" 
d="M420 608q-104 0 -175.5 -74t-71.5 -179.5t71.5 -179.5t175.5 -74t175.5 74t71.5 179.5t-71.5 179.5t-175.5 74zM420 -7q-156 0 -262 103.5t-106 258t106 258t262 103.5t262 -103.5t106 -258t-106 -258t-262 -103.5zM366 891h104l122 -134h-97l-77 56l-77 -56h-97z" />
    <glyph glyph-name="Otilde" unicode="&#xd5;" horiz-adv-x="840" 
d="M420 608q-104 0 -175.5 -74t-71.5 -179.5t71.5 -179.5t175.5 -74t175.5 74t71.5 179.5t-71.5 179.5t-175.5 74zM420 -7q-156 0 -262 103.5t-106 258t106 258t262 103.5t262 -103.5t106 -258t-106 -258t-262 -103.5zM492 754q-26 0 -72.5 23.5t-59.5 23.5q-33 0 -34 -44
h-74q0 58 23.5 94t65.5 36q27 0 75 -23.5t63 -23.5q30 0 30 44h75q-3 -130 -92 -130z" />
    <glyph glyph-name="Odieresis" unicode="&#xd6;" horiz-adv-x="840" 
d="M278.5 771q-17.5 18 -17.5 43.5t17.5 43.5t43.5 18t44 -17.5t18 -43t-18 -44t-44 -18.5t-43.5 18zM464 771q-18 18 -18 43.5t18 43.5t43.5 18t43.5 -17.5t18 -43t-18.5 -44t-43.5 -18.5t-43 18zM420 608q-104 0 -175.5 -74t-71.5 -179.5t71.5 -179.5t175.5 -74t175.5 74
t71.5 179.5t-71.5 179.5t-175.5 74zM420 -7q-156 0 -262 103.5t-106 258t106 258t262 103.5t262 -103.5t106 -258t-106 -258t-262 -103.5z" />
    <glyph glyph-name="multiply" unicode="&#xd7;" horiz-adv-x="565" 
d="M283 443l170 171l63 -64l-169 -169l170 -171l-63 -64l-171 171l-171 -171l-64 64l171 171l-170 169l64 64z" />
    <glyph glyph-name="Oslash" unicode="&#xd8;" horiz-adv-x="840" 
d="M788 355q0 -155 -106 -258.5t-262 -103.5q-53 0 -101 12l-57 -122h-100l73 156q-85 46 -134 129.5t-49 186.5q0 154 106 257.5t262 103.5q61 0 121 -19l54 114h100l-71 -153q76 -48 120 -127.5t44 -175.5zM420 608q-104 0 -175.5 -74t-71.5 -180q0 -65 29.5 -121
t80.5 -91l212 454q-36 12 -75 12zM667 354q0 122 -92 199l-209 -447q28 -5 54 -5q104 0 175.5 74t71.5 179z" />
    <glyph glyph-name="Ugrave" unicode="&#xd9;" horiz-adv-x="768" 
d="M473 757h-102l-122 96l118 49zM384 104q82 0 130 56t48 152v387h118v-392q0 -151 -83 -232.5t-213 -81.5t-213 81.5t-83 232.5v392h118v-387q0 -96 48 -152t130 -56z" />
    <glyph glyph-name="Uacute" unicode="&#xda;" horiz-adv-x="768" 
d="M384 104q82 0 130 56t48 152v387h118v-392q0 -151 -83 -232.5t-213 -81.5t-213 81.5t-83 232.5v392h118v-387q0 -96 48 -152t130 -56zM416 758h-102l106 145l118 -49z" />
    <glyph glyph-name="Ucircumflex" unicode="&#xdb;" horiz-adv-x="768" 
d="M384 104q82 0 130 56t48 152v387h118v-392q0 -151 -83 -232.5t-213 -81.5t-213 81.5t-83 232.5v392h118v-387q0 -96 48 -152t130 -56zM336 891h104l122 -134h-97l-77 56l-77 -56h-97z" />
    <glyph glyph-name="Udieresis" unicode="&#xdc;" horiz-adv-x="768" 
d="M249.5 771q-17.5 18 -17.5 43.5t18 43.5t43.5 18t43.5 -17.5t18 -43t-18.5 -44t-44 -18.5t-43 18zM435 771q-18 18 -18 43.5t18 43.5t43.5 18t43.5 -17.5t18 -43t-18 -44t-43.5 -18.5t-43.5 18zM384 104q82 0 130 56t48 152v387h118v-392q0 -151 -83 -232.5t-213 -81.5
t-213 81.5t-83 232.5v392h118v-387q0 -96 48 -152t130 -56z" />
    <glyph glyph-name="Yacute" unicode="&#xdd;" horiz-adv-x="624" 
d="M372 0h-120v276l-260 423h129l191 -318l191 318h129l-260 -423v-276zM389 742h-102l106 145l118 -49z" />
    <glyph glyph-name="Thorn" unicode="&#xde;" horiz-adv-x="686" 
d="M642 369q0 -133 -79 -192.5t-234 -59.5h-114v-117h-118v699h118v-88h112q315 0 315 -242zM481 262.5q40 38.5 40 109.5t-49 101.5t-147 30.5h-110v-280h127q99 0 139 38.5z" />
    <glyph glyph-name="germandbls" unicode="&#xdf;" horiz-adv-x="651" 
d="M412 460.5q35 34.5 35 80t-26.5 78.5t-83.5 33q-76 0 -107 -47t-31 -139v-466h-118v456q0 72 6.5 101.5t15 55.5t20.5 44.5t31 38.5t42 32q54 29 126 29t121 -20t73 -53q45 -60 45 -130q0 -103 -104 -168q74 -8 111 -60t37 -120q0 -94 -66 -150t-189 -56h-41v98h22
q75 0 115.5 24.5t40.5 84t-40 88t-107 28.5q-23 0 -35 -1v93q72 11 107 45.5z" />
    <glyph glyph-name="agrave" unicode="&#xe0;" horiz-adv-x="587" 
d="M512 0h-102v71q-66 -79 -177 -79q-83 0 -137.5 47t-54.5 125.5t58 117.5t157 39h145v20q0 106 -118 106q-74 0 -154 -54l-50 70q97 77 220 77q94 0 153.5 -47.5t59.5 -149.5v-343zM400 198v45h-126q-121 0 -121 -76q0 -39 30 -59.5t83.5 -20.5t93.5 30t40 81zM384 600
h-102l-122 96l118 49z" />
    <glyph glyph-name="aacute" unicode="&#xe1;" horiz-adv-x="587" 
d="M512 0h-102v71q-66 -79 -177 -79q-83 0 -137.5 47t-54.5 125.5t58 117.5t157 39h145v20q0 106 -118 106q-74 0 -154 -54l-50 70q97 77 220 77q94 0 153.5 -47.5t59.5 -149.5v-343zM400 198v45h-126q-121 0 -121 -76q0 -39 30 -59.5t83.5 -20.5t93.5 30t40 81zM351 600
h-102l106 145l118 -49z" />
    <glyph glyph-name="acircumflex" unicode="&#xe2;" horiz-adv-x="587" 
d="M512 0h-102v71q-66 -79 -177 -79q-83 0 -137.5 47t-54.5 125.5t58 117.5t157 39h145v20q0 106 -118 106q-74 0 -154 -54l-50 70q97 77 220 77q94 0 153.5 -47.5t59.5 -149.5v-343zM400 198v45h-126q-121 0 -121 -76q0 -39 30 -59.5t83.5 -20.5t93.5 30t40 81zM239 734
h104l122 -134h-97l-77 56l-77 -56h-97z" />
    <glyph glyph-name="atilde" unicode="&#xe3;" horiz-adv-x="587" 
d="M512 0h-102v71q-66 -79 -177 -79q-83 0 -137.5 47t-54.5 125.5t58 117.5t157 39h145v20q0 106 -118 106q-74 0 -154 -54l-50 70q97 77 220 77q94 0 153.5 -47.5t59.5 -149.5v-343zM400 198v45h-126q-121 0 -121 -76q0 -39 30 -59.5t83.5 -20.5t93.5 30t40 81zM365 597
q-26 0 -72.5 23.5t-59.5 23.5q-33 0 -34 -44h-74q0 58 23.5 94t65.5 36q27 0 75 -23.5t63 -23.5q30 0 30 44h75q-3 -130 -92 -130z" />
    <glyph glyph-name="adieresis" unicode="&#xe4;" horiz-adv-x="587" 
d="M512 0h-102v71q-66 -79 -177 -79q-83 0 -137.5 47t-54.5 125.5t58 117.5t157 39h145v20q0 106 -118 106q-74 0 -154 -54l-50 70q97 77 220 77q94 0 153.5 -47.5t59.5 -149.5v-343zM400 198v45h-126q-121 0 -121 -76q0 -39 30 -59.5t83.5 -20.5t93.5 30t40 81zM139 662
q0 26 17.5 43.5t43.5 17.5t44 -17.5t18 -43.5t-18 -44t-44 -18t-43.5 18t-17.5 44zM342 618q-18 18 -18 43.5t18 43.5t43.5 18t43.5 -17.5t18 -43.5t-18.5 -44t-43.5 -18t-43 18z" />
    <glyph glyph-name="aring" unicode="&#xe5;" horiz-adv-x="587" 
d="M512 0h-102v71q-66 -79 -177 -79q-83 0 -137.5 47t-54.5 125.5t58 117.5t157 39h145v20q0 106 -118 106q-74 0 -154 -54l-50 70q97 77 220 77q94 0 153.5 -47.5t59.5 -149.5v-343zM403 687q0 -42 -33 -73t-76 -31t-75.5 31t-32.5 73t32.5 73.5t75.5 31.5t76 -31.5
t33 -73.5zM400 198v45h-126q-121 0 -121 -76q0 -39 30 -59.5t83.5 -20.5t93.5 30t40 81zM334 647.5q15 15.5 15 40t-15 40t-39.5 15.5t-40 -15.5t-15.5 -40t15.5 -40t40 -15.5t39.5 15.5z" />
    <glyph glyph-name="ae" unicode="&#xe6;" horiz-adv-x="952" 
d="M910 230h-397q1 -64 46.5 -103t108.5 -39q90 0 142 63l64 -70q-86 -89 -215.5 -89t-202.5 96q-80 -96 -213 -96q-84 0 -143 47.5t-59 125.5t57.5 115t157.5 37h145v24q0 106 -118 106q-74 0 -154 -54l-50 70q97 77 220 77t177 -74q72 74 181.5 74t181 -65.5t71.5 -180.5
v-64zM400 198v32h-126q-93 0 -112 -28q-9 -14 -9 -35q0 -39 30 -59.5t83.5 -20.5t93.5 30t40 81zM757 411.5q-37 32.5 -94 32.5t-100.5 -34t-48.5 -93l284 -1q-4 63 -41 95.5z" />
    <glyph glyph-name="ccedilla" unicode="&#xe7;" horiz-adv-x="577" 
d="M409 -117q0 -38 -31 -66.5t-78.5 -28.5t-83.5 22l26 57q19 -10 38.5 -10t30.5 11.5t11 27.5t-11.5 28.5t-29 12.5t-29.5 -5l33 62q-101 12 -169.5 85.5t-68.5 190.5t83.5 193.5t203.5 76.5t203 -83l-66 -81q-69 60 -139 60t-121.5 -46.5t-51.5 -120t50.5 -124.5
t125.5 -51t141 68l66 -72q-82 -82 -186 -95l-17 -33q70 -9 70 -79z" />
    <glyph glyph-name="egrave" unicode="&#xe8;" horiz-adv-x="618" 
d="M412 600h-102l-122 96l118 49zM576 217h-417q4 -58 53 -93.5t112 -35.5q100 0 152 63l64 -70q-86 -89 -224 -89q-112 0 -190.5 74.5t-78.5 200t80 199.5t188.5 74t184.5 -65.5t76 -180.5v-77zM159 305h305q0 67 -42 103t-103.5 36t-110.5 -37.5t-49 -101.5z" />
    <glyph glyph-name="eacute" unicode="&#xe9;" horiz-adv-x="618" 
d="M576 217h-417q4 -58 53 -93.5t112 -35.5q100 0 152 63l64 -70q-86 -89 -224 -89q-112 0 -190.5 74.5t-78.5 200t80 199.5t188.5 74t184.5 -65.5t76 -180.5v-77zM159 305h305q0 67 -42 103t-103.5 36t-110.5 -37.5t-49 -101.5zM376 602h-102l106 145l118 -49z" />
    <glyph glyph-name="ecircumflex" unicode="&#xea;" horiz-adv-x="618" 
d="M576 217h-417q4 -58 53 -93.5t112 -35.5q100 0 152 63l64 -70q-86 -89 -224 -89q-112 0 -190.5 74.5t-78.5 200t80 199.5t188.5 74t184.5 -65.5t76 -180.5v-77zM159 305h305q0 67 -42 103t-103.5 36t-110.5 -37.5t-49 -101.5zM265 734h104l122 -134h-97l-77 56l-77 -56
h-97z" />
    <glyph glyph-name="edieresis" unicode="&#xeb;" horiz-adv-x="618" 
d="M162 662q0 26 18 43.5t43.5 17.5t43.5 -17.5t18 -43.5t-18.5 -44t-44 -18t-43 18t-17.5 44zM365 618q-18 18 -18 43.5t18 43.5t43.5 18t43.5 -17.5t18 -43.5t-18 -44t-43.5 -18t-43.5 18zM576 217h-417q4 -58 53 -93.5t112 -35.5q100 0 152 63l64 -70q-86 -89 -224 -89
q-112 0 -190.5 74.5t-78.5 200t80 199.5t188.5 74t184.5 -65.5t76 -180.5v-77zM159 305h305q0 67 -42 103t-103.5 36t-110.5 -37.5t-49 -101.5z" />
    <glyph glyph-name="igrave" unicode="&#xec;" 
d="M200 600h-102l-122 96l118 49zM81 532h112v-532h-112v532z" />
    <glyph glyph-name="iacute" unicode="&#xed;" 
d="M190 600h-94l106 140l110 -49zM81 532h112v-532h-112v532z" />
    <glyph glyph-name="icircumflex" unicode="&#xee;" 
d="M81 532h112v-532h-112v532zM90 734h104l122 -134h-97l-77 56l-77 -56h-97z" />
    <glyph glyph-name="idieresis" unicode="&#xef;" 
d="M-8 662q0 26 18 43.5t43.5 17.5t43.5 -17.5t18 -43.5t-18.5 -44t-44 -18t-43 18t-17.5 44zM195 618q-18 18 -18 43.5t18 43.5t43.5 18t43.5 -17.5t18 -43.5t-18 -44t-43.5 -18t-43.5 18zM81 532h112v-532h-112v532z" />
    <glyph glyph-name="eth" unicode="&#xf0;" horiz-adv-x="596" 
d="M399 437q-38 63 -123 148l-93 -59l-57 54l94 60q-2 3 -73 62l95 55q36 -28 73 -63l85 54l59 -54l-88 -57q176 -191 176 -370q0 -123 -65 -199t-177 -76t-183.5 67t-71.5 172.5t70 173t169 67.5q71 0 108 -37zM197.5 131.5q38.5 -41.5 101 -41.5t101 41.5t38.5 100
t-38.5 100.5t-101 42t-101 -42t-38.5 -100.5t38.5 -100z" />
    <glyph glyph-name="ntilde" unicode="&#xf1;" horiz-adv-x="646" 
d="M193 288v-288h-112v532h112v-97q27 49 74.5 77t102.5 28q90 0 145.5 -55t55.5 -159v-326h-112v292q0 147 -122 147q-58 0 -101 -38.5t-43 -112.5zM405 597q-26 0 -72.5 23.5t-59.5 23.5q-33 0 -34 -44h-74q0 58 23.5 94t65.5 36q27 0 75 -23.5t63 -23.5q30 0 30 44h75
q-3 -130 -92 -130z" />
    <glyph glyph-name="ograve" unicode="&#xf2;" horiz-adv-x="652" 
d="M395 600h-102l-122 96l118 49zM326 92q73 0 120.5 48.5t47.5 125.5t-47.5 125.5t-120.5 48.5t-120.5 -48.5t-47.5 -125.5t47.5 -125.5t120.5 -48.5zM326 -8q-120 0 -200 79.5t-80 194.5t80 194.5t200 79.5t200 -79.5t80 -194.5t-80 -194.5t-200 -79.5z" />
    <glyph glyph-name="oacute" unicode="&#xf3;" horiz-adv-x="652" 
d="M326 92q73 0 120.5 48.5t47.5 125.5t-47.5 125.5t-120.5 48.5t-120.5 -48.5t-47.5 -125.5t47.5 -125.5t120.5 -48.5zM326 -8q-120 0 -200 79.5t-80 194.5t80 194.5t200 79.5t200 -79.5t80 -194.5t-80 -194.5t-200 -79.5zM377 600h-102l106 145l118 -49z" />
    <glyph glyph-name="ocircumflex" unicode="&#xf4;" horiz-adv-x="652" 
d="M326 92q73 0 120.5 48.5t47.5 125.5t-47.5 125.5t-120.5 48.5t-120.5 -48.5t-47.5 -125.5t47.5 -125.5t120.5 -48.5zM326 -8q-120 0 -200 79.5t-80 194.5t80 194.5t200 79.5t200 -79.5t80 -194.5t-80 -194.5t-200 -79.5zM275 734h104l122 -134h-97l-77 56l-77 -56h-97z
" />
    <glyph glyph-name="otilde" unicode="&#xf5;" horiz-adv-x="652" 
d="M326 92q73 0 120.5 48.5t47.5 125.5t-47.5 125.5t-120.5 48.5t-120.5 -48.5t-47.5 -125.5t47.5 -125.5t120.5 -48.5zM326 -8q-120 0 -200 79.5t-80 194.5t80 194.5t200 79.5t200 -79.5t80 -194.5t-80 -194.5t-200 -79.5zM400 597q-26 0 -72.5 23.5t-59.5 23.5
q-33 0 -34 -44h-74q0 58 23.5 94t65.5 36q27 0 75 -23.5t63 -23.5q30 0 30 44h75q-3 -130 -92 -130z" />
    <glyph glyph-name="odieresis" unicode="&#xf6;" horiz-adv-x="652" 
d="M168 662q0 26 18 43.5t43.5 17.5t43.5 -17.5t18 -43.5t-18.5 -44t-44 -18t-43 18t-17.5 44zM371 618q-18 18 -18 43.5t18 43.5t43.5 18t43.5 -17.5t18 -43.5t-18 -44t-43.5 -18t-43.5 18zM326 92q73 0 120.5 48.5t47.5 125.5t-47.5 125.5t-120.5 48.5t-120.5 -48.5
t-47.5 -125.5t47.5 -125.5t120.5 -48.5zM326 -8q-120 0 -200 79.5t-80 194.5t80 194.5t200 79.5t200 -79.5t80 -194.5t-80 -194.5t-200 -79.5z" />
    <glyph glyph-name="divide" unicode="&#xf7;" horiz-adv-x="568" 
d="M210 211q0 31 21.5 52.5t52.5 21.5t53 -21.5t22 -52.5t-22 -53t-53 -22t-52.5 22t-21.5 53zM210 566q0 31 21.5 52.5t52.5 21.5t53 -21.5t22 -52.5t-22 -53t-53 -22t-52.5 22t-21.5 53zM48 434h472v-94h-472v94z" />
    <glyph glyph-name="oslash" unicode="&#xf8;" horiz-adv-x="652" 
d="M326 -8q-28 0 -65 7l-48 -104h-100l64 137q-61 36 -96 98t-35 136q0 115 80 194.5t200 79.5q44 0 83 -12l44 94h100l-62 -132q54 -38 84.5 -96.5t30.5 -127.5q0 -115 -80 -194.5t-200 -79.5zM205.5 391.5q-47.5 -48.5 -47.5 -132t63 -133.5l145 310q-17 4 -40 4
q-73 0 -120.5 -48.5zM326 92q73 0 120.5 48.5t47.5 126.5t-49 125l-140 -299q7 -1 21 -1z" />
    <glyph glyph-name="ugrave" unicode="&#xf9;" horiz-adv-x="646" 
d="M393 600h-102l-122 96l118 49zM453 244v288h112v-532h-112v97q-27 -49 -74.5 -77t-102.5 -28q-90 0 -145.5 55t-55.5 159v326h112v-292q0 -147 122 -147q58 0 101 38.5t43 112.5z" />
    <glyph glyph-name="uacute" unicode="&#xfa;" horiz-adv-x="646" 
d="M453 244v288h112v-532h-112v97q-27 -49 -74.5 -77t-102.5 -28q-90 0 -145.5 55t-55.5 159v326h112v-292q0 -147 122 -147q58 0 101 38.5t43 112.5zM350 602h-102l106 145l118 -49z" />
    <glyph glyph-name="ucircumflex" unicode="&#xfb;" horiz-adv-x="646" 
d="M453 244v288h112v-532h-112v97q-27 -49 -74.5 -77t-102.5 -28q-90 0 -145.5 55t-55.5 159v326h112v-292q0 -147 122 -147q58 0 101 38.5t43 112.5zM270 734h104l122 -134h-97l-77 56l-77 -56h-97z" />
    <glyph glyph-name="udieresis" unicode="&#xfc;" horiz-adv-x="646" 
d="M162 662q0 26 18 43.5t43.5 17.5t43.5 -17.5t18 -43.5t-18.5 -44t-44 -18t-43 18t-17.5 44zM365 618q-18 18 -18 43.5t18 43.5t43.5 18t43.5 -17.5t18 -43.5t-18 -44t-43.5 -18t-43.5 18zM453 244v288h112v-532h-112v97q-27 -49 -74.5 -77t-102.5 -28q-90 0 -145.5 55
t-55.5 159v326h112v-292q0 -147 122 -147q58 0 101 38.5t43 112.5z" />
    <glyph glyph-name="yacute" unicode="&#xfd;" horiz-adv-x="574" 
d="M148 -212q-73 0 -132 53l51 91q35 -33 72.5 -33t61 27t23.5 59q0 14 -215 547h120l159 -392l159 392h120l-258 -632q-23 -52 -66 -82t-95 -30zM332 628h-102l106 145l118 -49z" />
    <glyph glyph-name="thorn" unicode="&#xfe;" horiz-adv-x="672" 
d="M553 462q72 -78 72 -197.5t-71.5 -196t-190.5 -76.5q-82 0 -143 52q-14 12 -20 20l-7 9v-267h-112v936h112v-283q3 3 7.5 8.5t21.5 19.5t36 25q50 28 107 28q116 0 188 -78zM458.5 143.5q46.5 52.5 46.5 123t-46 123t-114 52.5t-111 -52t-43 -124t43 -123.5t110.5 -51.5
t114 52.5z" />
    <glyph glyph-name="ydieresis" unicode="&#xff;" horiz-adv-x="574" 
d="M138 662q0 26 18 43.5t43.5 17.5t43.5 -17.5t18 -43.5t-18.5 -44t-44 -18t-43 18t-17.5 44zM341 618q-18 18 -18 43.5t18 43.5t43.5 18t43.5 -17.5t18 -43.5t-18 -44t-43.5 -18t-43.5 18zM148 -212q-73 0 -132 53l51 91q35 -33 72.5 -33t61 27t23.5 59q0 14 -215 547h120
l159 -392l159 392h120l-258 -632q-23 -52 -66 -82t-95 -30z" />
    <glyph glyph-name="dotlessi" unicode="&#x131;" 
d="M81 532h112v-532h-112v532z" />
    <glyph glyph-name="OE" unicode="&#x152;" horiz-adv-x="1066" 
d="M1000 699v-111h-373v-185h335v-105h-335v-187h385v-111h-603q-151 0 -253.5 100t-102.5 249.5t102.5 249.5t253.5 100h591zM181 350q0 -102 69.5 -174.5t169.5 -72.5h89v493h-89q-101 0 -170 -72t-69 -174z" />
    <glyph glyph-name="oe" unicode="&#x153;" horiz-adv-x="1066" 
d="M1024 217h-417q4 -58 53 -93.5t112 -35.5q100 0 152 63l64 -70q-86 -89 -224 -89q-65 0 -122 27t-94 77q-81 -104 -222 -104q-120 0 -200 79.5t-80 194.5t80 194.5t200 79.5q140 0 222 -105q37 51 94.5 78t119.5 27q110 0 186 -65.5t76 -180.5v-77zM326 92
q73 0 120.5 48.5t47.5 125.5t-47.5 125.5t-120.5 48.5t-120.5 -48.5t-47.5 -125.5t47.5 -125.5t120.5 -48.5zM607 305h305q0 67 -42 103t-103.5 36t-110.5 -37.5t-49 -101.5z" />
    <glyph glyph-name="circumflex" unicode="&#x2c6;" horiz-adv-x="674" 
d="M288 734h104l122 -134h-97l-77 56l-77 -56h-97z" />
    <glyph glyph-name="ring" unicode="&#x2da;" horiz-adv-x="377" 
d="M297 687q0 -42 -33 -73t-76 -31t-75.5 31t-32.5 73t32.5 73.5t75.5 31.5t76 -31.5t33 -73.5zM228 647.5q15 15.5 15 40t-15 40t-39.5 15.5t-40 -15.5t-15.5 -40t15.5 -40t40 -15.5t39.5 15.5z" />
    <glyph glyph-name="tilde" unicode="&#x2dc;" horiz-adv-x="519" 
d="M335 739q-26 0 -72.5 23.5t-59.5 23.5q-33 0 -34 -44h-74q0 58 23.5 94t65.5 36q27 0 75 -23.5t63 -23.5q30 0 30 44h75q-3 -130 -92 -130z" />
    <glyph glyph-name="endash" unicode="&#x2013;" horiz-adv-x="538" 
d="M82 226v67h374v-67h-374z" />
    <glyph glyph-name="emdash" unicode="&#x2014;" horiz-adv-x="725" 
d="M82 227v66h561v-66h-561z" />
    <glyph glyph-name="quoteleft" unicode="&#x2018;" horiz-adv-x="216" 
d="M134 619q28 -18 28 -48.5t-18 -48t-45 -17.5t-45.5 17t-18.5 44.5t18 53.5l59 85h61z" />
    <glyph glyph-name="quoteright" unicode="&#x2019;" horiz-adv-x="217" 
d="M73 586q-27 16 -27 47.5t18 49t45 17.5t45.5 -17t18.5 -44.5t-18 -53.5l-59 -85h-61z" />
    <glyph glyph-name="quotesinglbase" unicode="&#x201a;" horiz-adv-x="217" 
d="M73 5q-27 17 -27 48t18 48.5t45 17.5t45.5 -17t18.5 -44.5t-18 -53.5l-59 -85h-61z" />
    <glyph glyph-name="quotedblleft" unicode="&#x201c;" horiz-adv-x="370" 
d="M134 619q28 -18 28 -48.5t-18 -48t-45 -17.5t-45.5 17t-18.5 44.5t18 53.5l59 85h61zM287 619q28 -18 28 -48.5t-18 -48t-45 -17.5t-45.5 17t-18.5 44.5t18 53.5l59 85h61z" />
    <glyph glyph-name="quotedblright" unicode="&#x201d;" horiz-adv-x="369" 
d="M73 586q-27 16 -27 47.5t18 49t45 17.5t45.5 -17t18.5 -44.5t-18 -53.5l-59 -85h-61zM225 586q-27 16 -27 47.5t18 49t45 17.5t45.5 -17t18.5 -44.5t-18 -53.5l-59 -85h-61z" />
    <glyph glyph-name="quotedblbase" unicode="&#x201e;" horiz-adv-x="369" 
d="M73 5q-27 17 -27 48t18 48.5t45 17.5t45.5 -17t18.5 -44.5t-18 -53.5l-59 -85h-61zM225 5q-27 17 -27 48t18 48.5t45 17.5t45.5 -17t18.5 -44.5t-18 -53.5l-59 -85h-61z" />
    <glyph glyph-name="bullet" unicode="&#x2022;" horiz-adv-x="428" 
d="M85 316q0 53 38 91t91 38t91 -38t38 -91t-38 -91t-91 -38t-91 38t-38 91z" />
    <glyph glyph-name="guilsinglleft" unicode="&#x2039;" horiz-adv-x="349" 
d="M283 416l-115 -176l115 -176h-108l-119 176l119 176h108z" />
    <glyph glyph-name="guilsinglright" unicode="&#x203a;" horiz-adv-x="349" 
d="M181 240l-115 176h108l119 -176l-119 -176h-108z" />
    <glyph glyph-name="fraction" unicode="&#x2044;" horiz-adv-x="635" 
d="M639 699l-512 -699h-129l512 699h129z" />
    <glyph glyph-name="Euro" unicode="&#x20ac;" horiz-adv-x="761" 
d="M52 393v86h104q33 107 117 172t191 65q159 0 252 -115l-71 -90q-44 47 -83.5 66t-97.5 19t-104.5 -30.5t-69.5 -86.5h238v-86h-259q-1 -12 -1 -36.5t3 -46.5h257v-86h-230q54 -104 163 -104q54 0 92.5 20.5t81.5 64.5l71 -86q-93 -115 -245 -115q-104 0 -184.5 59.5
t-115.5 160.5h-109v86h90q-3 24 -3 48t1 35h-88z" />
    <glyph glyph-name="minus" unicode="&#x2212;" horiz-adv-x="568" 
d="M48 434h472v-94h-472v94z" />
    <hkern u1="&#x26;" u2="&#x2019;" k="29" />
    <hkern u1="&#x26;" u2="&#xc6;" k="-13" />
    <hkern u1="&#x26;" u2="Y" k="25" />
    <hkern u1="&#x26;" u2="W" k="17" />
    <hkern u1="&#x26;" u2="V" k="22" />
    <hkern u1="&#x26;" u2="T" k="22" />
    <hkern u1="&#x26;" u2="A" k="-6" />
    <hkern u1="&#x26;" u2="&#x27;" k="29" />
    <hkern u1="&#x27;" u2="&#x2039;" k="14" />
    <hkern u1="&#x27;" u2="&#xf0;" k="16" />
    <hkern u1="&#x27;" u2="&#xc6;" k="52" />
    <hkern u1="&#x27;" u2="o" k="11" />
    <hkern u1="&#x27;" u2="J" k="17" />
    <hkern u1="&#x27;" u2="A" k="46" />
    <hkern u1="&#x27;" u2="&#x3a;" k="9" />
    <hkern u1="&#x27;" u2="&#x34;" k="22" />
    <hkern u1="&#x27;" u2="&#x2f;" k="73" />
    <hkern u1="&#x27;" u2="&#x2e;" k="126" />
    <hkern u1="&#x27;" u2="&#x26;" k="19" />
    <hkern u1="&#x28;" u2="&#xf0;" k="20" />
    <hkern u1="&#x28;" u2="&#x7b;" k="10" />
    <hkern u1="&#x28;" u2="w" k="15" />
    <hkern u1="&#x28;" u2="v" k="13" />
    <hkern u1="&#x28;" u2="u" k="21" />
    <hkern u1="&#x28;" u2="t" k="13" />
    <hkern u1="&#x28;" u2="s" k="17" />
    <hkern u1="&#x28;" u2="o" k="27" />
    <hkern u1="&#x28;" u2="n" k="15" />
    <hkern u1="&#x28;" u2="j" k="-92" />
    <hkern u1="&#x28;" u2="f" k="12" />
    <hkern u1="&#x28;" u2="a" k="19" />
    <hkern u1="&#x28;" u2="S" k="11" />
    <hkern u1="&#x28;" u2="O" k="22" />
    <hkern u1="&#x28;" u2="&#x39;" k="10" />
    <hkern u1="&#x28;" u2="&#x38;" k="16" />
    <hkern u1="&#x28;" u2="&#x36;" k="20" />
    <hkern u1="&#x28;" u2="&#x34;" k="22" />
    <hkern u1="&#x28;" u2="&#x30;" k="19" />
    <hkern u1="&#x28;" u2="&#x28;" k="10" />
    <hkern u1="&#x29;" u2="&#x29;" k="10" />
    <hkern u1="&#x2a;" u2="&#xf0;" k="17" />
    <hkern u1="&#x2a;" u2="&#xef;" k="-15" />
    <hkern u1="&#x2a;" u2="&#xee;" k="-32" />
    <hkern u1="&#x2a;" u2="&#xec;" k="-8" />
    <hkern u1="&#x2a;" u2="&#xc6;" k="50" />
    <hkern u1="&#x2a;" u2="y" k="-7" />
    <hkern u1="&#x2a;" u2="v" k="-9" />
    <hkern u1="&#x2a;" u2="o" k="11" />
    <hkern u1="&#x2a;" u2="J" k="20" />
    <hkern u1="&#x2a;" u2="A" k="44" />
    <hkern u1="&#x2b;" u2="&#x33;" k="10" />
    <hkern u1="&#x2d;" u2="&#xc6;" k="9" />
    <hkern u1="&#x2d;" u2="z" k="17" />
    <hkern u1="&#x2d;" u2="x" k="23" />
    <hkern u1="&#x2d;" u2="t" k="9" />
    <hkern u1="&#x2d;" u2="f" k="9" />
    <hkern u1="&#x2d;" u2="Z" k="19" />
    <hkern u1="&#x2d;" u2="Y" k="45" />
    <hkern u1="&#x2d;" u2="X" k="28" />
    <hkern u1="&#x2d;" u2="W" k="19" />
    <hkern u1="&#x2d;" u2="V" k="26" />
    <hkern u1="&#x2d;" u2="T" k="57" />
    <hkern u1="&#x2d;" u2="S" k="8" />
    <hkern u1="&#x2d;" u2="J" k="29" />
    <hkern u1="&#x2d;" u2="A" k="12" />
    <hkern u1="&#x2d;" u2="&#x37;" k="19" />
    <hkern u1="&#x2d;" u2="&#x33;" k="19" />
    <hkern u1="&#x2d;" u2="&#x32;" k="19" />
    <hkern u1="&#x2d;" u2="&#x31;" k="27" />
    <hkern u1="&#x2e;" u2="&#x2019;" k="141" />
    <hkern u1="&#x2e;" u2="&#x2018;" k="141" />
    <hkern u1="&#x2e;" u2="y" k="36" />
    <hkern u1="&#x2e;" u2="w" k="28" />
    <hkern u1="&#x2e;" u2="v" k="36" />
    <hkern u1="&#x2e;" u2="t" k="16" />
    <hkern u1="&#x2e;" u2="f" k="8" />
    <hkern u1="&#x2e;" u2="Y" k="62" />
    <hkern u1="&#x2e;" u2="W" k="47" />
    <hkern u1="&#x2e;" u2="V" k="58" />
    <hkern u1="&#x2e;" u2="U" k="15" />
    <hkern u1="&#x2e;" u2="T" k="58" />
    <hkern u1="&#x2e;" u2="O" k="19" />
    <hkern u1="&#x2e;" u2="&#x37;" k="17" />
    <hkern u1="&#x2e;" u2="&#x36;" k="10" />
    <hkern u1="&#x2e;" u2="&#x31;" k="31" />
    <hkern u1="&#x2e;" u2="&#x30;" k="11" />
    <hkern u1="&#x2e;" u2="&#x27;" k="126" />
    <hkern u1="&#x2f;" u2="&#xf0;" k="24" />
    <hkern u1="&#x2f;" u2="&#xcf;" k="-8" />
    <hkern u1="&#x2f;" u2="&#xc6;" k="66" />
    <hkern u1="&#x2f;" u2="z" k="26" />
    <hkern u1="&#x2f;" u2="x" k="17" />
    <hkern u1="&#x2f;" u2="w" k="11" />
    <hkern u1="&#x2f;" u2="v" k="10" />
    <hkern u1="&#x2f;" u2="u" k="26" />
    <hkern u1="&#x2f;" u2="s" k="43" />
    <hkern u1="&#x2f;" u2="o" k="46" />
    <hkern u1="&#x2f;" u2="n" k="28" />
    <hkern u1="&#x2f;" u2="f" k="13" />
    <hkern u1="&#x2f;" u2="a" k="41" />
    <hkern u1="&#x2f;" u2="S" k="16" />
    <hkern u1="&#x2f;" u2="O" k="25" />
    <hkern u1="&#x2f;" u2="J" k="15" />
    <hkern u1="&#x2f;" u2="A" k="61" />
    <hkern u1="&#x2f;" u2="&#x39;" k="10" />
    <hkern u1="&#x2f;" u2="&#x38;" k="19" />
    <hkern u1="&#x2f;" u2="&#x36;" k="22" />
    <hkern u1="&#x2f;" u2="&#x34;" k="42" />
    <hkern u1="&#x2f;" u2="&#x30;" k="21" />
    <hkern u1="&#x2f;" u2="&#x2f;" k="281" />
    <hkern u1="&#x30;" u2="&#x2044;" k="14" />
    <hkern u1="&#x30;" u2="]" k="21" />
    <hkern u1="&#x30;" u2="\" k="13" />
    <hkern u1="&#x30;" u2="A" k="10" />
    <hkern u1="&#x30;" u2="&#x2f;" k="24" />
    <hkern u1="&#x30;" u2="&#x2e;" k="11" />
    <hkern u1="&#x30;" u2="&#x29;" k="19" />
    <hkern u1="&#x32;" u2="&#x2212;" k="10" />
    <hkern u1="&#x32;" u2="&#xb7;" k="17" />
    <hkern u1="&#x32;" u2="&#x2d;" k="11" />
    <hkern u1="&#x33;" u2="&#x2f;" k="16" />
    <hkern u1="&#x34;" u2="&#xb0;" k="24" />
    <hkern u1="&#x34;" u2="]" k="15" />
    <hkern u1="&#x34;" u2="\" k="18" />
    <hkern u1="&#x34;" u2="Y" k="15" />
    <hkern u1="&#x34;" u2="V" k="13" />
    <hkern u1="&#x34;" u2="T" k="20" />
    <hkern u1="&#x34;" u2="&#x37;" k="13" />
    <hkern u1="&#x34;" u2="&#x31;" k="12" />
    <hkern u1="&#x34;" u2="&#x29;" k="15" />
    <hkern u1="&#x34;" u2="&#x27;" k="21" />
    <hkern u1="&#x35;" u2="&#x2f;" k="14" />
    <hkern u1="&#x36;" u2="&#x2f;" k="13" />
    <hkern u1="&#x37;" u2="&#x2212;" k="24" />
    <hkern u1="&#x37;" u2="&#x2044;" k="59" />
    <hkern u1="&#x37;" u2="&#xc6;" k="44" />
    <hkern u1="&#x37;" u2="&#xb7;" k="26" />
    <hkern u1="&#x37;" u2="&#xa2;" k="20" />
    <hkern u1="&#x37;" u2="Y" k="-16" />
    <hkern u1="&#x37;" u2="V" k="-6" />
    <hkern u1="&#x37;" u2="A" k="40" />
    <hkern u1="&#x37;" u2="&#x34;" k="20" />
    <hkern u1="&#x37;" u2="&#x2f;" k="60" />
    <hkern u1="&#x37;" u2="&#x2e;" k="66" />
    <hkern u1="&#x37;" u2="&#x2d;" k="26" />
    <hkern u1="&#x38;" u2="]" k="16" />
    <hkern u1="&#x38;" u2="\" k="10" />
    <hkern u1="&#x38;" u2="&#x2f;" k="15" />
    <hkern u1="&#x38;" u2="&#x29;" k="16" />
    <hkern u1="&#x39;" u2="&#x2044;" k="14" />
    <hkern u1="&#x39;" u2="]" k="20" />
    <hkern u1="&#x39;" u2="\" k="12" />
    <hkern u1="&#x39;" u2="A" k="10" />
    <hkern u1="&#x39;" u2="&#x2f;" k="24" />
    <hkern u1="&#x39;" u2="&#x2e;" k="12" />
    <hkern u1="&#x39;" u2="&#x29;" k="19" />
    <hkern u1="&#x3a;" u2="&#x2019;" k="62" />
    <hkern u1="&#x3a;" u2="y" k="9" />
    <hkern u1="&#x3a;" u2="v" k="10" />
    <hkern u1="&#x3a;" u2="t" k="8" />
    <hkern u1="&#x3a;" u2="Y" k="45" />
    <hkern u1="&#x3a;" u2="W" k="21" />
    <hkern u1="&#x3a;" u2="V" k="28" />
    <hkern u1="&#x3a;" u2="T" k="55" />
    <hkern u1="&#x3a;" u2="&#x27;" k="9" />
    <hkern u1="&#x40;" u2="&#x2019;" k="18" />
    <hkern u1="&#x40;" u2="Y" k="26" />
    <hkern u1="&#x40;" u2="W" k="10" />
    <hkern u1="&#x40;" u2="V" k="16" />
    <hkern u1="&#x40;" u2="T" k="25" />
    <hkern u1="A" u2="&#x2019;" k="53" />
    <hkern u1="A" u2="&#x2018;" k="53" />
    <hkern u1="A" u2="&#xf0;" k="9" />
    <hkern u1="A" u2="&#xae;" k="12" />
    <hkern u1="A" u2="y" k="29" />
    <hkern u1="A" u2="w" k="25" />
    <hkern u1="A" u2="v" k="29" />
    <hkern u1="A" u2="u" k="8" />
    <hkern u1="A" u2="t" k="24" />
    <hkern u1="A" u2="o" k="11" />
    <hkern u1="A" u2="f" k="9" />
    <hkern u1="A" u2="]" k="13" />
    <hkern u1="A" u2="\" k="55" />
    <hkern u1="A" u2="Y" k="51" />
    <hkern u1="A" u2="W" k="33" />
    <hkern u1="A" u2="V" k="40" />
    <hkern u1="A" u2="U" k="17" />
    <hkern u1="A" u2="T" k="55" />
    <hkern u1="A" u2="O" k="18" />
    <hkern u1="A" u2="&#x3f;" k="21" />
    <hkern u1="A" u2="&#x36;" k="10" />
    <hkern u1="A" u2="&#x31;" k="21" />
    <hkern u1="A" u2="&#x30;" k="10" />
    <hkern u1="A" u2="&#x2d;" k="12" />
    <hkern u1="A" u2="&#x2a;" k="44" />
    <hkern u1="A" u2="&#x27;" k="46" />
    <hkern u1="B" u2="z" k="5" />
    <hkern u1="B" u2="y" k="8" />
    <hkern u1="B" u2="x" k="13" />
    <hkern u1="B" u2="w" k="7" />
    <hkern u1="B" u2="v" k="8" />
    <hkern u1="B" u2="t" k="9" />
    <hkern u1="B" u2="s" k="7" />
    <hkern u1="B" u2="f" k="8" />
    <hkern u1="B" u2="]" k="20" />
    <hkern u1="B" u2="\" k="14" />
    <hkern u1="B" u2="Y" k="19" />
    <hkern u1="B" u2="X" k="10" />
    <hkern u1="B" u2="W" k="7" />
    <hkern u1="B" u2="V" k="12" />
    <hkern u1="B" u2="T" k="17" />
    <hkern u1="B" u2="J" k="7" />
    <hkern u1="B" u2="A" k="8" />
    <hkern u1="B" u2="&#x2f;" k="13" />
    <hkern u1="B" u2="&#x29;" k="17" />
    <hkern u1="C" u2="&#xf0;" k="13" />
    <hkern u1="C" u2="&#xee;" k="-23" />
    <hkern u1="C" u2="u" k="7" />
    <hkern u1="C" u2="s" k="7" />
    <hkern u1="C" u2="o" k="15" />
    <hkern u1="C" u2="n" k="5" />
    <hkern u1="C" u2="S" k="5" />
    <hkern u1="C" u2="O" k="15" />
    <hkern u1="C" u2="&#x2d;" k="10" />
    <hkern u1="E" u2="&#xf0;" k="10" />
    <hkern u1="E" u2="u" k="7" />
    <hkern u1="E" u2="t" k="8" />
    <hkern u1="E" u2="o" k="10" />
    <hkern u1="E" u2="f" k="6" />
    <hkern u1="E" u2="O" k="10" />
    <hkern u1="F" u2="&#x131;" k="15" />
    <hkern u1="F" u2="&#xf0;" k="20" />
    <hkern u1="F" u2="&#xee;" k="-21" />
    <hkern u1="F" u2="&#xed;" k="10" />
    <hkern u1="F" u2="&#xec;" k="-14" />
    <hkern u1="F" u2="&#xdf;" k="8" />
    <hkern u1="F" u2="&#xc6;" k="49" />
    <hkern u1="F" u2="z" k="16" />
    <hkern u1="F" u2="x" k="9" />
    <hkern u1="F" u2="u" k="12" />
    <hkern u1="F" u2="t" k="5" />
    <hkern u1="F" u2="s" k="21" />
    <hkern u1="F" u2="o" k="15" />
    <hkern u1="F" u2="n" k="15" />
    <hkern u1="F" u2="f" k="7" />
    <hkern u1="F" u2="a" k="22" />
    <hkern u1="F" u2="J" k="17" />
    <hkern u1="F" u2="A" k="43" />
    <hkern u1="F" u2="&#x2f;" k="46" />
    <hkern u1="F" u2="&#x2e;" k="56" />
    <hkern u1="G" u2="y" k="8" />
    <hkern u1="G" u2="x" k="6" />
    <hkern u1="G" u2="w" k="8" />
    <hkern u1="G" u2="v" k="9" />
    <hkern u1="G" u2="t" k="9" />
    <hkern u1="G" u2="f" k="9" />
    <hkern u1="G" u2="]" k="10" />
    <hkern u1="G" u2="Y" k="11" />
    <hkern u1="G" u2="X" k="5" />
    <hkern u1="G" u2="V" k="8" />
    <hkern u1="G" u2="T" k="8" />
    <hkern u1="G" u2="A" k="7" />
    <hkern u1="G" u2="&#x29;" k="10" />
    <hkern u1="I" u2="&#xf0;" k="9" />
    <hkern u1="I" u2="z" k="5" />
    <hkern u1="I" u2="u" k="5" />
    <hkern u1="I" u2="t" k="8" />
    <hkern u1="I" u2="s" k="6" />
    <hkern u1="I" u2="o" k="9" />
    <hkern u1="I" u2="n" k="5" />
    <hkern u1="I" u2="l" k="5" />
    <hkern u1="I" u2="h" k="5" />
    <hkern u1="I" u2="f" k="7" />
    <hkern u1="I" u2="a" k="6" />
    <hkern u1="J" u2="&#xf0;" k="11" />
    <hkern u1="J" u2="&#xc6;" k="9" />
    <hkern u1="J" u2="z" k="8" />
    <hkern u1="J" u2="x" k="6" />
    <hkern u1="J" u2="u" k="6" />
    <hkern u1="J" u2="t" k="7" />
    <hkern u1="J" u2="s" k="10" />
    <hkern u1="J" u2="o" k="8" />
    <hkern u1="J" u2="n" k="5" />
    <hkern u1="J" u2="l" k="5" />
    <hkern u1="J" u2="h" k="5" />
    <hkern u1="J" u2="f" k="7" />
    <hkern u1="J" u2="a" k="7" />
    <hkern u1="J" u2="J" k="8" />
    <hkern u1="J" u2="A" k="9" />
    <hkern u1="J" u2="&#x2f;" k="21" />
    <hkern u1="J" u2="&#x2e;" k="9" />
    <hkern u1="K" u2="&#x2039;" k="13" />
    <hkern u1="K" u2="&#xf0;" k="33" />
    <hkern u1="K" u2="&#xef;" k="-19" />
    <hkern u1="K" u2="&#xec;" k="-34" />
    <hkern u1="K" u2="&#xae;" k="10" />
    <hkern u1="K" u2="y" k="26" />
    <hkern u1="K" u2="w" k="29" />
    <hkern u1="K" u2="v" k="26" />
    <hkern u1="K" u2="u" k="22" />
    <hkern u1="K" u2="t" k="13" />
    <hkern u1="K" u2="o" k="41" />
    <hkern u1="K" u2="n" k="5" />
    <hkern u1="K" u2="f" k="9" />
    <hkern u1="K" u2="a" k="9" />
    <hkern u1="K" u2="S" k="12" />
    <hkern u1="K" u2="O" k="31" />
    <hkern u1="K" u2="&#x2d;" k="27" />
    <hkern u1="L" u2="&#x2019;" k="87" />
    <hkern u1="L" u2="&#x2018;" k="87" />
    <hkern u1="L" u2="&#xf0;" k="5" />
    <hkern u1="L" u2="&#xb7;" k="74" />
    <hkern u1="L" u2="&#xae;" k="10" />
    <hkern u1="L" u2="y" k="60" />
    <hkern u1="L" u2="w" k="49" />
    <hkern u1="L" u2="v" k="60" />
    <hkern u1="L" u2="u" k="7" />
    <hkern u1="L" u2="t" k="31" />
    <hkern u1="L" u2="o" k="9" />
    <hkern u1="L" u2="f" k="13" />
    <hkern u1="L" u2="\" k="68" />
    <hkern u1="L" u2="Y" k="66" />
    <hkern u1="L" u2="W" k="56" />
    <hkern u1="L" u2="V" k="60" />
    <hkern u1="L" u2="U" k="17" />
    <hkern u1="L" u2="T" k="72" />
    <hkern u1="L" u2="O" k="20" />
    <hkern u1="L" u2="&#x3f;" k="24" />
    <hkern u1="L" u2="&#x31;" k="22" />
    <hkern u1="L" u2="&#x2d;" k="65" />
    <hkern u1="L" u2="&#x2a;" k="88" />
    <hkern u1="L" u2="&#x27;" k="87" />
    <hkern u1="O" u2="&#xf0;" k="5" />
    <hkern u1="O" u2="&#xc6;" k="19" />
    <hkern u1="O" u2="&#x7d;" k="11" />
    <hkern u1="O" u2="z" k="7" />
    <hkern u1="O" u2="x" k="12" />
    <hkern u1="O" u2="s" k="6" />
    <hkern u1="O" u2="n" k="5" />
    <hkern u1="O" u2="l" k="5" />
    <hkern u1="O" u2="i" k="5" />
    <hkern u1="O" u2="h" k="5" />
    <hkern u1="O" u2="a" k="5" />
    <hkern u1="O" u2="]" k="25" />
    <hkern u1="O" u2="\" k="18" />
    <hkern u1="O" u2="Z" k="12" />
    <hkern u1="O" u2="Y" k="23" />
    <hkern u1="O" u2="X" k="25" />
    <hkern u1="O" u2="W" k="7" />
    <hkern u1="O" u2="V" k="12" />
    <hkern u1="O" u2="T" k="19" />
    <hkern u1="O" u2="J" k="21" />
    <hkern u1="O" u2="A" k="18" />
    <hkern u1="O" u2="&#x2f;" k="28" />
    <hkern u1="O" u2="&#x2e;" k="19" />
    <hkern u1="O" u2="&#x29;" k="22" />
    <hkern u1="P" u2="&#x2039;" k="10" />
    <hkern u1="P" u2="&#xf0;" k="13" />
    <hkern u1="P" u2="&#xc6;" k="49" />
    <hkern u1="P" u2="s" k="6" />
    <hkern u1="P" u2="o" k="6" />
    <hkern u1="P" u2="a" k="10" />
    <hkern u1="P" u2="]" k="19" />
    <hkern u1="P" u2="Z" k="7" />
    <hkern u1="P" u2="Y" k="8" />
    <hkern u1="P" u2="X" k="19" />
    <hkern u1="P" u2="J" k="31" />
    <hkern u1="P" u2="A" k="38" />
    <hkern u1="P" u2="&#x2f;" k="48" />
    <hkern u1="P" u2="&#x2e;" k="63" />
    <hkern u1="P" u2="&#x29;" k="18" />
    <hkern u1="Q" u2="&#x7d;" k="5" />
    <hkern u1="Q" u2="j" k="-61" />
    <hkern u1="Q" u2="]" k="12" />
    <hkern u1="R" u2="&#x2039;" k="15" />
    <hkern u1="R" u2="&#xf0;" k="20" />
    <hkern u1="R" u2="u" k="9" />
    <hkern u1="R" u2="t" k="6" />
    <hkern u1="R" u2="o" k="15" />
    <hkern u1="R" u2="n" k="5" />
    <hkern u1="R" u2="f" k="5" />
    <hkern u1="R" u2="a" k="10" />
    <hkern u1="R" u2="\" k="12" />
    <hkern u1="R" u2="Y" k="13" />
    <hkern u1="R" u2="V" k="9" />
    <hkern u1="R" u2="T" k="10" />
    <hkern u1="R" u2="J" k="5" />
    <hkern u1="S" u2="z" k="6" />
    <hkern u1="S" u2="y" k="10" />
    <hkern u1="S" u2="x" k="9" />
    <hkern u1="S" u2="w" k="10" />
    <hkern u1="S" u2="v" k="10" />
    <hkern u1="S" u2="u" k="6" />
    <hkern u1="S" u2="t" k="12" />
    <hkern u1="S" u2="s" k="6" />
    <hkern u1="S" u2="n" k="6" />
    <hkern u1="S" u2="f" k="11" />
    <hkern u1="S" u2="Y" k="6" />
    <hkern u1="S" u2="V" k="5" />
    <hkern u1="S" u2="A" k="7" />
    <hkern u1="S" u2="&#x2f;" k="11" />
    <hkern u1="T" u2="&#x203a;" k="54" />
    <hkern u1="T" u2="&#x2039;" k="62" />
    <hkern u1="T" u2="&#x131;" k="49" />
    <hkern u1="T" u2="&#xf0;" k="40" />
    <hkern u1="T" u2="&#xef;" k="-8" />
    <hkern u1="T" u2="&#xee;" k="-32" />
    <hkern u1="T" u2="&#xed;" k="20" />
    <hkern u1="T" u2="&#xec;" k="-24" />
    <hkern u1="T" u2="&#xdf;" k="13" />
    <hkern u1="T" u2="&#xc6;" k="54" />
    <hkern u1="T" u2="&#xae;" k="10" />
    <hkern u1="T" u2="z" k="72" />
    <hkern u1="T" u2="y" k="68" />
    <hkern u1="T" u2="x" k="67" />
    <hkern u1="T" u2="w" k="65" />
    <hkern u1="T" u2="v" k="68" />
    <hkern u1="T" u2="u" k="52" />
    <hkern u1="T" u2="t" k="10" />
    <hkern u1="T" u2="s" k="72" />
    <hkern u1="T" u2="o" k="64" />
    <hkern u1="T" u2="n" k="49" />
    <hkern u1="T" u2="l" k="5" />
    <hkern u1="T" u2="i" k="5" />
    <hkern u1="T" u2="h" k="5" />
    <hkern u1="T" u2="f" k="21" />
    <hkern u1="T" u2="a" k="73" />
    <hkern u1="T" u2="O" k="19" />
    <hkern u1="T" u2="J" k="13" />
    <hkern u1="T" u2="A" k="55" />
    <hkern u1="T" u2="&#x40;" k="27" />
    <hkern u1="T" u2="&#x3a;" k="55" />
    <hkern u1="T" u2="&#x34;" k="32" />
    <hkern u1="T" u2="&#x2f;" k="55" />
    <hkern u1="T" u2="&#x2e;" k="58" />
    <hkern u1="T" u2="&#x2d;" k="57" />
    <hkern u1="T" u2="&#x26;" k="14" />
    <hkern u1="U" u2="&#xf0;" k="13" />
    <hkern u1="U" u2="&#xc6;" k="19" />
    <hkern u1="U" u2="z" k="10" />
    <hkern u1="U" u2="x" k="6" />
    <hkern u1="U" u2="u" k="9" />
    <hkern u1="U" u2="t" k="7" />
    <hkern u1="U" u2="s" k="13" />
    <hkern u1="U" u2="o" k="9" />
    <hkern u1="U" u2="n" k="5" />
    <hkern u1="U" u2="l" k="6" />
    <hkern u1="U" u2="i" k="6" />
    <hkern u1="U" u2="h" k="6" />
    <hkern u1="U" u2="f" k="6" />
    <hkern u1="U" u2="a" k="10" />
    <hkern u1="U" u2="J" k="14" />
    <hkern u1="U" u2="A" k="17" />
    <hkern u1="U" u2="&#x2f;" k="26" />
    <hkern u1="U" u2="&#x2e;" k="16" />
    <hkern u1="V" u2="&#x203a;" k="17" />
    <hkern u1="V" u2="&#x2039;" k="35" />
    <hkern u1="V" u2="&#x131;" k="30" />
    <hkern u1="V" u2="&#xf0;" k="38" />
    <hkern u1="V" u2="&#xef;" k="-27" />
    <hkern u1="V" u2="&#xee;" k="-27" />
    <hkern u1="V" u2="&#xed;" k="14" />
    <hkern u1="V" u2="&#xec;" k="-51" />
    <hkern u1="V" u2="&#xdf;" k="12" />
    <hkern u1="V" u2="&#xc6;" k="45" />
    <hkern u1="V" u2="z" k="22" />
    <hkern u1="V" u2="x" k="9" />
    <hkern u1="V" u2="u" k="25" />
    <hkern u1="V" u2="t" k="5" />
    <hkern u1="V" u2="s" k="44" />
    <hkern u1="V" u2="o" k="43" />
    <hkern u1="V" u2="n" k="30" />
    <hkern u1="V" u2="f" k="6" />
    <hkern u1="V" u2="a" k="43" />
    <hkern u1="V" u2="S" k="6" />
    <hkern u1="V" u2="O" k="12" />
    <hkern u1="V" u2="J" k="13" />
    <hkern u1="V" u2="A" k="40" />
    <hkern u1="V" u2="&#x40;" k="16" />
    <hkern u1="V" u2="&#x3a;" k="28" />
    <hkern u1="V" u2="&#x34;" k="20" />
    <hkern u1="V" u2="&#x31;" k="-5" />
    <hkern u1="V" u2="&#x2f;" k="57" />
    <hkern u1="V" u2="&#x2e;" k="58" />
    <hkern u1="V" u2="&#x2d;" k="26" />
    <hkern u1="V" u2="&#x26;" k="14" />
    <hkern u1="W" u2="&#x203a;" k="11" />
    <hkern u1="W" u2="&#x2039;" k="28" />
    <hkern u1="W" u2="&#x131;" k="25" />
    <hkern u1="W" u2="&#xf0;" k="35" />
    <hkern u1="W" u2="&#xef;" k="-25" />
    <hkern u1="W" u2="&#xee;" k="-24" />
    <hkern u1="W" u2="&#xed;" k="12" />
    <hkern u1="W" u2="&#xec;" k="-43" />
    <hkern u1="W" u2="&#xdf;" k="11" />
    <hkern u1="W" u2="&#xc6;" k="39" />
    <hkern u1="W" u2="z" k="17" />
    <hkern u1="W" u2="x" k="5" />
    <hkern u1="W" u2="u" k="21" />
    <hkern u1="W" u2="s" k="39" />
    <hkern u1="W" u2="o" k="38" />
    <hkern u1="W" u2="n" k="25" />
    <hkern u1="W" u2="a" k="37" />
    <hkern u1="W" u2="O" k="7" />
    <hkern u1="W" u2="J" k="12" />
    <hkern u1="W" u2="A" k="33" />
    <hkern u1="W" u2="&#x40;" k="10" />
    <hkern u1="W" u2="&#x3a;" k="21" />
    <hkern u1="W" u2="&#x34;" k="13" />
    <hkern u1="W" u2="&#x2f;" k="48" />
    <hkern u1="W" u2="&#x2e;" k="47" />
    <hkern u1="W" u2="&#x2d;" k="19" />
    <hkern u1="W" u2="&#x26;" k="10" />
    <hkern u1="X" u2="&#x2039;" k="15" />
    <hkern u1="X" u2="&#xf0;" k="25" />
    <hkern u1="X" u2="&#xef;" k="-8" />
    <hkern u1="X" u2="&#xec;" k="-20" />
    <hkern u1="X" u2="&#xae;" k="10" />
    <hkern u1="X" u2="y" k="24" />
    <hkern u1="X" u2="w" k="27" />
    <hkern u1="X" u2="v" k="24" />
    <hkern u1="X" u2="u" k="21" />
    <hkern u1="X" u2="t" k="16" />
    <hkern u1="X" u2="o" k="32" />
    <hkern u1="X" u2="n" k="6" />
    <hkern u1="X" u2="f" k="12" />
    <hkern u1="X" u2="a" k="7" />
    <hkern u1="X" u2="O" k="25" />
    <hkern u1="X" u2="&#x2d;" k="27" />
    <hkern u1="Y" u2="&#x203a;" k="32" />
    <hkern u1="Y" u2="&#x2039;" k="53" />
    <hkern u1="Y" u2="&#x131;" k="36" />
    <hkern u1="Y" u2="&#xf0;" k="44" />
    <hkern u1="Y" u2="&#xef;" k="-38" />
    <hkern u1="Y" u2="&#xee;" k="-22" />
    <hkern u1="Y" u2="&#xed;" k="19" />
    <hkern u1="Y" u2="&#xec;" k="-61" />
    <hkern u1="Y" u2="&#xdf;" k="14" />
    <hkern u1="Y" u2="&#xc6;" k="55" />
    <hkern u1="Y" u2="&#xae;" k="15" />
    <hkern u1="Y" u2="z" k="40" />
    <hkern u1="Y" u2="y" k="9" />
    <hkern u1="Y" u2="x" k="21" />
    <hkern u1="Y" u2="w" k="13" />
    <hkern u1="Y" u2="v" k="8" />
    <hkern u1="Y" u2="u" k="36" />
    <hkern u1="Y" u2="t" k="7" />
    <hkern u1="Y" u2="s" k="52" />
    <hkern u1="Y" u2="o" k="60" />
    <hkern u1="Y" u2="n" k="35" />
    <hkern u1="Y" u2="f" k="11" />
    <hkern u1="Y" u2="a" k="49" />
    <hkern u1="Y" u2="S" k="9" />
    <hkern u1="Y" u2="O" k="23" />
    <hkern u1="Y" u2="J" k="10" />
    <hkern u1="Y" u2="A" k="51" />
    <hkern u1="Y" u2="&#x40;" k="28" />
    <hkern u1="Y" u2="&#x3a;" k="44" />
    <hkern u1="Y" u2="&#x36;" k="10" />
    <hkern u1="Y" u2="&#x34;" k="32" />
    <hkern u1="Y" u2="&#x31;" k="-15" />
    <hkern u1="Y" u2="&#x2f;" k="58" />
    <hkern u1="Y" u2="&#x2e;" k="62" />
    <hkern u1="Y" u2="&#x2d;" k="45" />
    <hkern u1="Y" u2="&#x26;" k="18" />
    <hkern u1="Z" u2="&#xf0;" k="12" />
    <hkern u1="Z" u2="&#xee;" k="-18" />
    <hkern u1="Z" u2="y" k="8" />
    <hkern u1="Z" u2="w" k="10" />
    <hkern u1="Z" u2="v" k="8" />
    <hkern u1="Z" u2="u" k="11" />
    <hkern u1="Z" u2="t" k="10" />
    <hkern u1="Z" u2="o" k="14" />
    <hkern u1="Z" u2="n" k="7" />
    <hkern u1="Z" u2="f" k="9" />
    <hkern u1="Z" u2="O" k="12" />
    <hkern u1="Z" u2="&#x2d;" k="17" />
    <hkern u1="[" u2="&#xf0;" k="20" />
    <hkern u1="[" u2="&#xec;" k="-16" />
    <hkern u1="[" u2="&#xc6;" k="11" />
    <hkern u1="[" u2="z" k="18" />
    <hkern u1="[" u2="w" k="16" />
    <hkern u1="[" u2="v" k="14" />
    <hkern u1="[" u2="u" k="21" />
    <hkern u1="[" u2="t" k="10" />
    <hkern u1="[" u2="s" k="24" />
    <hkern u1="[" u2="o" k="29" />
    <hkern u1="[" u2="n" k="18" />
    <hkern u1="[" u2="j" k="-90" />
    <hkern u1="[" u2="f" k="10" />
    <hkern u1="[" u2="a" k="22" />
    <hkern u1="[" u2="S" k="13" />
    <hkern u1="[" u2="O" k="25" />
    <hkern u1="[" u2="A" k="13" />
    <hkern u1="[" u2="&#x39;" k="10" />
    <hkern u1="[" u2="&#x38;" k="16" />
    <hkern u1="[" u2="&#x36;" k="21" />
    <hkern u1="[" u2="&#x34;" k="27" />
    <hkern u1="[" u2="&#x30;" k="21" />
    <hkern u1="\" u2="&#x2019;" k="62" />
    <hkern u1="\" u2="&#xc6;" k="-19" />
    <hkern u1="\" u2="y" k="23" />
    <hkern u1="\" u2="w" k="18" />
    <hkern u1="\" u2="v" k="23" />
    <hkern u1="\" u2="t" k="11" />
    <hkern u1="\" u2="Y" k="44" />
    <hkern u1="\" u2="W" k="31" />
    <hkern u1="\" u2="V" k="40" />
    <hkern u1="\" u2="U" k="12" />
    <hkern u1="\" u2="T" k="41" />
    <hkern u1="\" u2="O" k="11" />
    <hkern u1="\" u2="A" k="-7" />
    <hkern u1="\" u2="&#x31;" k="20" />
    <hkern u1="\" u2="&#x27;" k="53" />
    <hkern u1="a" u2="&#x2019;" k="16" />
    <hkern u1="a" u2="&#x2018;" k="16" />
    <hkern u1="a" u2="&#x7d;" k="11" />
    <hkern u1="a" u2="y" k="6" />
    <hkern u1="a" u2="w" k="5" />
    <hkern u1="a" u2="v" k="6" />
    <hkern u1="a" u2="t" k="6" />
    <hkern u1="a" u2="f" k="4" />
    <hkern u1="a" u2="]" k="23" />
    <hkern u1="a" u2="\" k="34" />
    <hkern u1="a" u2="Z" k="9" />
    <hkern u1="a" u2="Y" k="47" />
    <hkern u1="a" u2="X" k="5" />
    <hkern u1="a" u2="W" k="26" />
    <hkern u1="a" u2="V" k="35" />
    <hkern u1="a" u2="U" k="8" />
    <hkern u1="a" u2="T" k="53" />
    <hkern u1="a" u2="S" k="5" />
    <hkern u1="a" u2="O" k="6" />
    <hkern u1="a" u2="J" k="7" />
    <hkern u1="a" u2="I" k="5" />
    <hkern u1="a" u2="&#x29;" k="16" />
    <hkern u1="c" u2="&#x2039;" k="13" />
    <hkern u1="c" u2="&#xf0;" k="12" />
    <hkern u1="c" u2="s" k="4" />
    <hkern u1="c" u2="o" k="11" />
    <hkern u1="c" u2="a" k="4" />
    <hkern u1="c" u2="]" k="16" />
    <hkern u1="c" u2="\" k="20" />
    <hkern u1="c" u2="Y" k="44" />
    <hkern u1="c" u2="W" k="17" />
    <hkern u1="c" u2="V" k="22" />
    <hkern u1="c" u2="U" k="6" />
    <hkern u1="c" u2="T" k="80" />
    <hkern u1="c" u2="S" k="6" />
    <hkern u1="c" u2="O" k="10" />
    <hkern u1="c" u2="&#x2d;" k="15" />
    <hkern u1="c" u2="&#x29;" k="13" />
    <hkern u1="d" u2="Z" k="6" />
    <hkern u1="d" u2="U" k="6" />
    <hkern u1="d" u2="T" k="5" />
    <hkern u1="d" u2="O" k="5" />
    <hkern u1="d" u2="J" k="8" />
    <hkern u1="d" u2="I" k="5" />
    <hkern u1="e" u2="&#x2019;" k="18" />
    <hkern u1="e" u2="&#x2018;" k="18" />
    <hkern u1="e" u2="&#x7d;" k="12" />
    <hkern u1="e" u2="y" k="6" />
    <hkern u1="e" u2="x" k="11" />
    <hkern u1="e" u2="v" k="6" />
    <hkern u1="e" u2="t" k="4" />
    <hkern u1="e" u2="f" k="4" />
    <hkern u1="e" u2="]" k="25" />
    <hkern u1="e" u2="\" k="33" />
    <hkern u1="e" u2="Z" k="14" />
    <hkern u1="e" u2="Y" k="57" />
    <hkern u1="e" u2="X" k="17" />
    <hkern u1="e" u2="W" k="36" />
    <hkern u1="e" u2="V" k="43" />
    <hkern u1="e" u2="U" k="7" />
    <hkern u1="e" u2="T" k="77" />
    <hkern u1="e" u2="S" k="7" />
    <hkern u1="e" u2="J" k="9" />
    <hkern u1="e" u2="I" k="6" />
    <hkern u1="e" u2="A" k="7" />
    <hkern u1="e" u2="&#x2f;" k="17" />
    <hkern u1="e" u2="&#x29;" k="23" />
    <hkern u1="f" u2="&#x2039;" k="27" />
    <hkern u1="f" u2="&#xf0;" k="31" />
    <hkern u1="f" u2="&#xef;" k="-49" />
    <hkern u1="f" u2="&#xee;" k="-18" />
    <hkern u1="f" u2="&#xec;" k="-74" />
    <hkern u1="f" u2="&#xc6;" k="44" />
    <hkern u1="f" u2="s" k="4" />
    <hkern u1="f" u2="o" k="13" />
    <hkern u1="f" u2="a" k="5" />
    <hkern u1="f" u2="]" k="-14" />
    <hkern u1="f" u2="Y" k="-57" />
    <hkern u1="f" u2="X" k="-16" />
    <hkern u1="f" u2="W" k="-38" />
    <hkern u1="f" u2="V" k="-46" />
    <hkern u1="f" u2="T" k="-19" />
    <hkern u1="f" u2="J" k="6" />
    <hkern u1="f" u2="A" k="40" />
    <hkern u1="f" u2="&#x3a;" k="20" />
    <hkern u1="f" u2="&#x2f;" k="31" />
    <hkern u1="f" u2="&#x2e;" k="32" />
    <hkern u1="f" u2="&#x2d;" k="31" />
    <hkern u1="i" u2="Z" k="6" />
    <hkern u1="i" u2="U" k="6" />
    <hkern u1="i" u2="T" k="5" />
    <hkern u1="i" u2="O" k="5" />
    <hkern u1="i" u2="J" k="8" />
    <hkern u1="i" u2="I" k="5" />
    <hkern u1="j" u2="j" k="-16" />
    <hkern u1="k" u2="&#x2039;" k="20" />
    <hkern u1="k" u2="&#xf0;" k="26" />
    <hkern u1="k" u2="s" k="5" />
    <hkern u1="k" u2="o" k="25" />
    <hkern u1="k" u2="a" k="9" />
    <hkern u1="k" u2="Y" k="19" />
    <hkern u1="k" u2="V" k="8" />
    <hkern u1="k" u2="U" k="5" />
    <hkern u1="k" u2="T" k="65" />
    <hkern u1="k" u2="O" k="17" />
    <hkern u1="k" u2="&#x2d;" k="28" />
    <hkern u1="l" u2="&#xb7;" k="73" />
    <hkern u1="l" u2="Z" k="6" />
    <hkern u1="l" u2="U" k="6" />
    <hkern u1="l" u2="T" k="5" />
    <hkern u1="l" u2="O" k="5" />
    <hkern u1="l" u2="J" k="8" />
    <hkern u1="l" u2="I" k="5" />
    <hkern u1="n" u2="&#x2019;" k="17" />
    <hkern u1="n" u2="&#x2018;" k="17" />
    <hkern u1="n" u2="&#x7d;" k="11" />
    <hkern u1="n" u2="y" k="7" />
    <hkern u1="n" u2="w" k="6" />
    <hkern u1="n" u2="v" k="6" />
    <hkern u1="n" u2="t" k="7" />
    <hkern u1="n" u2="f" k="5" />
    <hkern u1="n" u2="]" k="23" />
    <hkern u1="n" u2="\" k="35" />
    <hkern u1="n" u2="Z" k="10" />
    <hkern u1="n" u2="Y" k="47" />
    <hkern u1="n" u2="X" k="5" />
    <hkern u1="n" u2="W" k="26" />
    <hkern u1="n" u2="V" k="35" />
    <hkern u1="n" u2="U" k="8" />
    <hkern u1="n" u2="T" k="53" />
    <hkern u1="n" u2="S" k="5" />
    <hkern u1="n" u2="O" k="6" />
    <hkern u1="n" u2="J" k="7" />
    <hkern u1="n" u2="I" k="5" />
    <hkern u1="n" u2="&#x2a;" k="8" />
    <hkern u1="n" u2="&#x29;" k="16" />
    <hkern u1="o" u2="&#x2019;" k="26" />
    <hkern u1="o" u2="&#x2018;" k="26" />
    <hkern u1="o" u2="&#xc6;" k="10" />
    <hkern u1="o" u2="&#x7d;" k="17" />
    <hkern u1="o" u2="z" k="6" />
    <hkern u1="o" u2="y" k="10" />
    <hkern u1="o" u2="x" k="19" />
    <hkern u1="o" u2="w" k="7" />
    <hkern u1="o" u2="v" k="9" />
    <hkern u1="o" u2="t" k="8" />
    <hkern u1="o" u2="f" k="8" />
    <hkern u1="o" u2="]" k="29" />
    <hkern u1="o" u2="\" k="37" />
    <hkern u1="o" u2="Z" k="20" />
    <hkern u1="o" u2="Y" k="60" />
    <hkern u1="o" u2="X" k="32" />
    <hkern u1="o" u2="W" k="38" />
    <hkern u1="o" u2="V" k="43" />
    <hkern u1="o" u2="U" k="9" />
    <hkern u1="o" u2="T" k="64" />
    <hkern u1="o" u2="S" k="11" />
    <hkern u1="o" u2="J" k="14" />
    <hkern u1="o" u2="I" k="9" />
    <hkern u1="o" u2="A" k="11" />
    <hkern u1="o" u2="&#x3f;" k="10" />
    <hkern u1="o" u2="&#x2f;" k="21" />
    <hkern u1="o" u2="&#x2a;" k="11" />
    <hkern u1="o" u2="&#x29;" k="27" />
    <hkern u1="o" u2="&#x27;" k="11" />
    <hkern u1="q" u2="j" k="-58" />
    <hkern u1="r" u2="&#x2039;" k="27" />
    <hkern u1="r" u2="&#xf0;" k="28" />
    <hkern u1="r" u2="&#xc6;" k="45" />
    <hkern u1="r" u2="&#x7d;" k="10" />
    <hkern u1="r" u2="o" k="10" />
    <hkern u1="r" u2="a" k="5" />
    <hkern u1="r" u2="]" k="19" />
    <hkern u1="r" u2="Z" k="14" />
    <hkern u1="r" u2="Y" k="7" />
    <hkern u1="r" u2="X" k="30" />
    <hkern u1="r" u2="T" k="68" />
    <hkern u1="r" u2="J" k="42" />
    <hkern u1="r" u2="A" k="44" />
    <hkern u1="r" u2="&#x3a;" k="16" />
    <hkern u1="r" u2="&#x2f;" k="43" />
    <hkern u1="r" u2="&#x2e;" k="45" />
    <hkern u1="r" u2="&#x2d;" k="28" />
    <hkern u1="r" u2="&#x29;" k="18" />
    <hkern u1="r" u2="&#x26;" k="13" />
    <hkern u1="s" u2="&#x7d;" k="10" />
    <hkern u1="s" u2="x" k="4" />
    <hkern u1="s" u2="v" k="4" />
    <hkern u1="s" u2="]" k="21" />
    <hkern u1="s" u2="\" k="26" />
    <hkern u1="s" u2="Y" k="45" />
    <hkern u1="s" u2="X" k="8" />
    <hkern u1="s" u2="W" k="25" />
    <hkern u1="s" u2="V" k="30" />
    <hkern u1="s" u2="U" k="9" />
    <hkern u1="s" u2="T" k="71" />
    <hkern u1="s" u2="O" k="5" />
    <hkern u1="s" u2="I" k="6" />
    <hkern u1="s" u2="A" k="5" />
    <hkern u1="s" u2="&#x2f;" k="10" />
    <hkern u1="s" u2="&#x29;" k="20" />
    <hkern u1="t" u2="o" k="4" />
    <hkern u1="t" u2="]" k="12" />
    <hkern u1="t" u2="\" k="16" />
    <hkern u1="t" u2="Y" k="33" />
    <hkern u1="t" u2="W" k="12" />
    <hkern u1="t" u2="V" k="18" />
    <hkern u1="t" u2="U" k="6" />
    <hkern u1="t" u2="T" k="58" />
    <hkern u1="u" u2="]" k="18" />
    <hkern u1="u" u2="\" k="20" />
    <hkern u1="u" u2="Z" k="7" />
    <hkern u1="u" u2="Y" k="35" />
    <hkern u1="u" u2="X" k="7" />
    <hkern u1="u" u2="W" k="25" />
    <hkern u1="u" u2="V" k="30" />
    <hkern u1="u" u2="U" k="5" />
    <hkern u1="u" u2="T" k="49" />
    <hkern u1="u" u2="O" k="5" />
    <hkern u1="u" u2="J" k="8" />
    <hkern u1="u" u2="I" k="5" />
    <hkern u1="u" u2="&#x29;" k="15" />
    <hkern u1="v" u2="&#x2039;" k="18" />
    <hkern u1="v" u2="&#xf0;" k="17" />
    <hkern u1="v" u2="&#xc6;" k="32" />
    <hkern u1="v" u2="s" k="7" />
    <hkern u1="v" u2="o" k="9" />
    <hkern u1="v" u2="a" k="7" />
    <hkern u1="v" u2="]" k="14" />
    <hkern u1="v" u2="Z" k="6" />
    <hkern u1="v" u2="Y" k="8" />
    <hkern u1="v" u2="X" k="24" />
    <hkern u1="v" u2="T" k="68" />
    <hkern u1="v" u2="J" k="26" />
    <hkern u1="v" u2="A" k="29" />
    <hkern u1="v" u2="&#x3a;" k="9" />
    <hkern u1="v" u2="&#x2f;" k="40" />
    <hkern u1="v" u2="&#x2e;" k="36" />
    <hkern u1="v" u2="&#x2a;" k="-9" />
    <hkern u1="v" u2="&#x29;" k="13" />
    <hkern u1="w" u2="&#x2039;" k="14" />
    <hkern u1="w" u2="&#xf0;" k="14" />
    <hkern u1="w" u2="&#xc6;" k="29" />
    <hkern u1="w" u2="s" k="4" />
    <hkern u1="w" u2="o" k="7" />
    <hkern u1="w" u2="a" k="5" />
    <hkern u1="w" u2="]" k="16" />
    <hkern u1="w" u2="Z" k="8" />
    <hkern u1="w" u2="Y" k="13" />
    <hkern u1="w" u2="X" k="26" />
    <hkern u1="w" u2="T" k="65" />
    <hkern u1="w" u2="J" k="28" />
    <hkern u1="w" u2="A" k="25" />
    <hkern u1="w" u2="&#x2f;" k="35" />
    <hkern u1="w" u2="&#x2e;" k="29" />
    <hkern u1="w" u2="&#x29;" k="15" />
    <hkern u1="x" u2="&#x2039;" k="22" />
    <hkern u1="x" u2="&#xf0;" k="22" />
    <hkern u1="x" u2="o" k="20" />
    <hkern u1="x" u2="a" k="5" />
    <hkern u1="x" u2="Y" k="19" />
    <hkern u1="x" u2="V" k="8" />
    <hkern u1="x" u2="U" k="6" />
    <hkern u1="x" u2="T" k="66" />
    <hkern u1="x" u2="O" k="12" />
    <hkern u1="x" u2="&#x2d;" k="24" />
    <hkern u1="y" u2="&#x2039;" k="18" />
    <hkern u1="y" u2="&#xf0;" k="17" />
    <hkern u1="y" u2="&#xc6;" k="32" />
    <hkern u1="y" u2="s" k="6" />
    <hkern u1="y" u2="o" k="9" />
    <hkern u1="y" u2="a" k="7" />
    <hkern u1="y" u2="]" k="11" />
    <hkern u1="y" u2="Z" k="6" />
    <hkern u1="y" u2="Y" k="8" />
    <hkern u1="y" u2="X" k="23" />
    <hkern u1="y" u2="T" k="68" />
    <hkern u1="y" u2="J" k="24" />
    <hkern u1="y" u2="A" k="29" />
    <hkern u1="y" u2="&#x3a;" k="9" />
    <hkern u1="y" u2="&#x2f;" k="37" />
    <hkern u1="y" u2="&#x2e;" k="36" />
    <hkern u1="y" u2="&#x2a;" k="-6" />
    <hkern u1="y" u2="&#x29;" k="11" />
    <hkern u1="z" u2="&#x2039;" k="15" />
    <hkern u1="z" u2="&#xf0;" k="7" />
    <hkern u1="z" u2="o" k="7" />
    <hkern u1="z" u2="]" k="16" />
    <hkern u1="z" u2="\" k="18" />
    <hkern u1="z" u2="Y" k="38" />
    <hkern u1="z" u2="W" k="16" />
    <hkern u1="z" u2="V" k="20" />
    <hkern u1="z" u2="U" k="10" />
    <hkern u1="z" u2="T" k="73" />
    <hkern u1="z" u2="O" k="6" />
    <hkern u1="z" u2="I" k="5" />
    <hkern u1="z" u2="&#x2d;" k="17" />
    <hkern u1="&#x7b;" u2="&#xf0;" k="11" />
    <hkern u1="&#x7b;" u2="u" k="12" />
    <hkern u1="&#x7b;" u2="s" k="10" />
    <hkern u1="&#x7b;" u2="o" k="17" />
    <hkern u1="&#x7b;" u2="j" k="-82" />
    <hkern u1="&#x7b;" u2="a" k="10" />
    <hkern u1="&#x7b;" u2="O" k="12" />
    <hkern u1="&#x7c;" u2="j" k="-51" />
    <hkern u1="&#x7d;" u2="&#x29;" k="10" />
    <hkern u1="&#xae;" u2="&#xc6;" k="12" />
    <hkern u1="&#xae;" u2="Y" k="16" />
    <hkern u1="&#xae;" u2="X" k="12" />
    <hkern u1="&#xae;" u2="T" k="12" />
    <hkern u1="&#xae;" u2="J" k="12" />
    <hkern u1="&#xae;" u2="A" k="13" />
    <hkern u1="&#xb0;" u2="&#x34;" k="24" />
    <hkern u1="&#xb7;" u2="l" k="73" />
    <hkern u1="&#xb7;" u2="&#x37;" k="20" />
    <hkern u1="&#xb7;" u2="&#x33;" k="26" />
    <hkern u1="&#xb7;" u2="&#x32;" k="25" />
    <hkern u1="&#xb7;" u2="&#x31;" k="29" />
    <hkern u1="&#xbf;" u2="Y" k="19" />
    <hkern u1="&#xbf;" u2="W" k="15" />
    <hkern u1="&#xbf;" u2="V" k="18" />
    <hkern u1="&#xbf;" u2="T" k="20" />
    <hkern u1="&#xce;" u2="&#x7d;" k="-10" />
    <hkern u1="&#xde;" u2="&#xc6;" k="19" />
    <hkern u1="&#xde;" u2="z" k="5" />
    <hkern u1="&#xde;" u2="x" k="7" />
    <hkern u1="&#xde;" u2="]" k="25" />
    <hkern u1="&#xde;" u2="\" k="17" />
    <hkern u1="&#xde;" u2="Z" k="13" />
    <hkern u1="&#xde;" u2="Y" k="24" />
    <hkern u1="&#xde;" u2="X" k="30" />
    <hkern u1="&#xde;" u2="W" k="6" />
    <hkern u1="&#xde;" u2="V" k="12" />
    <hkern u1="&#xde;" u2="T" k="18" />
    <hkern u1="&#xde;" u2="J" k="24" />
    <hkern u1="&#xde;" u2="A" k="19" />
    <hkern u1="&#xde;" u2="&#x2f;" k="30" />
    <hkern u1="&#xde;" u2="&#x2e;" k="32" />
    <hkern u1="&#xde;" u2="&#x29;" k="22" />
    <hkern u1="&#xdf;" u2="y" k="7" />
    <hkern u1="&#xdf;" u2="x" k="9" />
    <hkern u1="&#xdf;" u2="w" k="5" />
    <hkern u1="&#xdf;" u2="v" k="7" />
    <hkern u1="&#xdf;" u2="t" k="7" />
    <hkern u1="&#xdf;" u2="f" k="6" />
    <hkern u1="&#xdf;" u2="]" k="12" />
    <hkern u1="&#xdf;" u2="\" k="10" />
    <hkern u1="&#xdf;" u2="Z" k="7" />
    <hkern u1="&#xdf;" u2="Y" k="18" />
    <hkern u1="&#xdf;" u2="X" k="15" />
    <hkern u1="&#xdf;" u2="W" k="13" />
    <hkern u1="&#xdf;" u2="V" k="16" />
    <hkern u1="&#xdf;" u2="U" k="10" />
    <hkern u1="&#xdf;" u2="T" k="15" />
    <hkern u1="&#xdf;" u2="S" k="5" />
    <hkern u1="&#xdf;" u2="O" k="5" />
    <hkern u1="&#xdf;" u2="J" k="7" />
    <hkern u1="&#xdf;" u2="I" k="8" />
    <hkern u1="&#xdf;" u2="A" k="7" />
    <hkern u1="&#xdf;" u2="&#x2f;" k="15" />
    <hkern u1="&#xdf;" u2="&#x29;" k="16" />
    <hkern u1="&#xed;" u2="&#x7d;" k="-16" />
    <hkern u1="&#xed;" u2="]" k="-27" />
    <hkern u1="&#xed;" u2="\" k="-9" />
    <hkern u1="&#xed;" u2="&#x2a;" k="-18" />
    <hkern u1="&#xee;" u2="&#x3f;" k="-17" />
    <hkern u1="&#xee;" u2="&#x2a;" k="-41" />
    <hkern u1="&#xef;" u2="&#x7d;" k="-6" />
    <hkern u1="&#xef;" u2="]" k="-16" />
    <hkern u1="&#xef;" u2="&#x2a;" k="-21" />
    <hkern u1="&#xf0;" u2="&#x2019;" k="18" />
    <hkern u1="&#xf0;" u2="&#x2018;" k="18" />
    <hkern u1="&#xf0;" u2="&#xc6;" k="7" />
    <hkern u1="&#xf0;" u2="&#x7d;" k="10" />
    <hkern u1="&#xf0;" u2="z" k="4" />
    <hkern u1="&#xf0;" u2="y" k="6" />
    <hkern u1="&#xf0;" u2="x" k="13" />
    <hkern u1="&#xf0;" u2="w" k="4" />
    <hkern u1="&#xf0;" u2="v" k="7" />
    <hkern u1="&#xf0;" u2="t" k="6" />
    <hkern u1="&#xf0;" u2="f" k="5" />
    <hkern u1="&#xf0;" u2="]" k="19" />
    <hkern u1="&#xf0;" u2="\" k="16" />
    <hkern u1="&#xf0;" u2="Z" k="18" />
    <hkern u1="&#xf0;" u2="Y" k="39" />
    <hkern u1="&#xf0;" u2="X" k="30" />
    <hkern u1="&#xf0;" u2="W" k="29" />
    <hkern u1="&#xf0;" u2="V" k="34" />
    <hkern u1="&#xf0;" u2="U" k="9" />
    <hkern u1="&#xf0;" u2="T" k="40" />
    <hkern u1="&#xf0;" u2="S" k="8" />
    <hkern u1="&#xf0;" u2="J" k="12" />
    <hkern u1="&#xf0;" u2="I" k="6" />
    <hkern u1="&#xf0;" u2="A" k="10" />
    <hkern u1="&#xf0;" u2="&#x2f;" k="19" />
    <hkern u1="&#xf0;" u2="&#x2a;" k="9" />
    <hkern u1="&#xf0;" u2="&#x29;" k="19" />
    <hkern u1="&#xf0;" u2="&#x27;" k="9" />
    <hkern u1="&#x2018;" u2="&#xf0;" k="19" />
    <hkern u1="&#x2018;" u2="&#xc6;" k="65" />
    <hkern u1="&#x2018;" u2="s" k="24" />
    <hkern u1="&#x2018;" u2="o" k="36" />
    <hkern u1="&#x2018;" u2="a" k="21" />
    <hkern u1="&#x2018;" u2="O" k="11" />
    <hkern u1="&#x2018;" u2="J" k="14" />
    <hkern u1="&#x2018;" u2="A" k="61" />
    <hkern u1="&#x2018;" u2="&#x2e;" k="151" />
    <hkern u1="&#x2019;" u2="&#x2039;" k="16" />
    <hkern u1="&#x2019;" u2="&#xf0;" k="19" />
    <hkern u1="&#x2019;" u2="&#xc6;" k="65" />
    <hkern u1="&#x2019;" u2="&#xae;" k="12" />
    <hkern u1="&#x2019;" u2="s" k="24" />
    <hkern u1="&#x2019;" u2="o" k="36" />
    <hkern u1="&#x2019;" u2="a" k="21" />
    <hkern u1="&#x2019;" u2="O" k="11" />
    <hkern u1="&#x2019;" u2="J" k="14" />
    <hkern u1="&#x2019;" u2="A" k="61" />
    <hkern u1="&#x2019;" u2="&#x40;" k="28" />
    <hkern u1="&#x2019;" u2="&#x3a;" k="76" />
    <hkern u1="&#x2019;" u2="&#x2f;" k="84" />
    <hkern u1="&#x2019;" u2="&#x2e;" k="151" />
    <hkern u1="&#x2019;" u2="&#x26;" k="22" />
    <hkern u1="&#x2039;" u2="Y" k="32" />
    <hkern u1="&#x2039;" u2="W" k="11" />
    <hkern u1="&#x2039;" u2="V" k="17" />
    <hkern u1="&#x2039;" u2="T" k="54" />
    <hkern u1="&#x203a;" u2="z" k="12" />
    <hkern u1="&#x203a;" u2="y" k="18" />
    <hkern u1="&#x203a;" u2="x" k="21" />
    <hkern u1="&#x203a;" u2="w" k="14" />
    <hkern u1="&#x203a;" u2="v" k="18" />
    <hkern u1="&#x203a;" u2="t" k="13" />
    <hkern u1="&#x203a;" u2="s" k="10" />
    <hkern u1="&#x203a;" u2="f" k="13" />
    <hkern u1="&#x203a;" u2="Z" k="11" />
    <hkern u1="&#x203a;" u2="Y" k="53" />
    <hkern u1="&#x203a;" u2="X" k="16" />
    <hkern u1="&#x203a;" u2="W" k="28" />
    <hkern u1="&#x203a;" u2="V" k="35" />
    <hkern u1="&#x203a;" u2="T" k="62" />
    <hkern u1="&#x203a;" u2="J" k="13" />
    <hkern u1="&#x203a;" u2="&#x27;" k="14" />
    <hkern u1="&#x2044;" u2="&#x36;" k="12" />
    <hkern u1="&#x2044;" u2="&#x34;" k="42" />
    <hkern u1="&#x2044;" u2="&#x31;" k="-10" />
    <hkern u1="&#x2044;" u2="&#x30;" k="11" />
    <hkern u1="&#x2212;" u2="&#x37;" k="18" />
    <hkern u1="&#x2212;" u2="&#x33;" k="19" />
    <hkern u1="&#x2212;" u2="&#x32;" k="18" />
    <hkern u1="&#x2212;" u2="&#x31;" k="25" />
  </font>
</defs></svg>
